// Gmsh 2D geometry specification

// Density of mesh near Points
lcf = 2.942927e+00;

// Geometrical entities = 1d and 2D regions indices
// #2D_REGIONS
MATRIX = 666;

// #1D_REGIONS
OPEN_FRACTURES = 777;

// Points
Point(1) = {1.444389e+02, 1.487585e+02, 0, lcf};
Point(2) = {1.449650e+02, 1.482324e+02, 0, lcf};
Point(3) = {1.454911e+02, 1.477062e+02, 0, lcf};
Point(4) = {1.459070e+02, 1.472903e+02, 0, lcf};
Point(5) = {1.463229e+02, 1.468745e+02, 0, lcf};
Point(6) = {1.490432e+02, 1.441541e+02, 0, lcf};
Point(7) = {1.517636e+02, 1.414338e+02, 0, lcf};
Point(8) = {1.534629e+02, 1.431332e+02, 0, lcf};
Point(9) = {1.551623e+02, 1.448325e+02, 0, lcf};
Point(10) = {1.502805e+02, 1.612180e+02, 0, lcf};
Point(11) = {1.524611e+02, 1.590374e+02, 0, lcf};
Point(12) = {1.546417e+02, 1.568568e+02, 0, lcf};
Point(13) = {1.500664e+02, 1.522815e+02, 0, lcf};
Point(14) = {1.916778e+02, 1.403183e+02, 0, lcf};
Point(15) = {1.917012e+02, 1.403416e+02, 0, lcf};
Point(16) = {1.917245e+02, 1.403649e+02, 0, lcf};
Point(17) = {1.794495e+02, 1.331396e+02, 0, lcf};
Point(18) = {1.802685e+02, 1.339585e+02, 0, lcf};
Point(19) = {1.810874e+02, 1.347774e+02, 0, lcf};
Point(20) = {1.902398e+02, 1.338526e+02, 0, lcf};
Point(21) = {1.905958e+02, 1.342086e+02, 0, lcf};
Point(22) = {1.909519e+02, 1.345646e+02, 0, lcf};
Point(23) = {1.621608e+02, 1.501184e+02, 0, lcf};
Point(24) = {1.676552e+02, 1.556128e+02, 0, lcf};
Point(25) = {1.731496e+02, 1.611072e+02, 0, lcf};
Point(26) = {1.526199e+02, 1.405775e+02, 0, lcf};
Point(27) = {1.573904e+02, 1.453479e+02, 0, lcf};
Point(28) = {1.687299e+02, 1.632662e+02, 0, lcf};
Point(29) = {1.697274e+02, 1.642637e+02, 0, lcf};
Point(30) = {1.707249e+02, 1.652612e+02, 0, lcf};
Point(31) = {1.768863e+02, 1.551098e+02, 0, lcf};
Point(32) = {1.850427e+02, 1.469534e+02, 0, lcf};
Point(33) = {1.395033e+02, 1.488236e+02, 0, lcf};
Point(34) = {1.452962e+02, 1.546165e+02, 0, lcf};
Point(35) = {1.510891e+02, 1.604094e+02, 0, lcf};
Point(36) = {1.386302e+02, 1.479505e+02, 0, lcf};
Point(37) = {1.390668e+02, 1.483870e+02, 0, lcf};
Point(38) = {1.361885e+02, 1.418546e+02, 0, lcf};
Point(39) = {1.385276e+02, 1.441937e+02, 0, lcf};
Point(40) = {1.408667e+02, 1.465328e+02, 0, lcf};
Point(41) = {1.423162e+02, 1.479823e+02, 0, lcf};
Point(42) = {1.437656e+02, 1.494317e+02, 0, lcf};
Point(43) = {1.470205e+02, 1.595947e+02, 0, lcf};
Point(44) = {1.488999e+02, 1.614740e+02, 0, lcf};
Point(45) = {1.507793e+02, 1.633534e+02, 0, lcf};
Point(46) = {1.482414e+02, 1.608155e+02, 0, lcf};
Point(47) = {1.494622e+02, 1.620363e+02, 0, lcf};
Point(48) = {1.532084e+02, 1.373287e+02, 0, lcf};
Point(49) = {1.555728e+02, 1.396932e+02, 0, lcf};
Point(50) = {1.579372e+02, 1.420576e+02, 0, lcf};
Point(51) = {1.833293e+02, 1.372937e+02, 0, lcf};
Point(52) = {1.867377e+02, 1.407022e+02, 0, lcf};
Point(53) = {1.901462e+02, 1.441106e+02, 0, lcf};
Point(54) = {1.809502e+02, 1.349146e+02, 0, lcf};
Point(55) = {1.821397e+02, 1.361042e+02, 0, lcf};
Point(56) = {1.810188e+02, 1.348460e+02, 0, lcf};
Point(57) = {1.376187e+02, 1.436209e+02, 0, lcf};
Point(58) = {1.380393e+02, 1.432002e+02, 0, lcf};
Point(59) = {1.384600e+02, 1.427796e+02, 0, lcf};
Point(60) = {1.414494e+02, 1.457690e+02, 0, lcf};
Point(61) = {1.351510e+02, 1.460885e+02, 0, lcf};
Point(62) = {1.363849e+02, 1.448547e+02, 0, lcf};
Point(63) = {1.405307e+02, 1.514682e+02, 0, lcf};
Point(64) = {1.459104e+02, 1.568478e+02, 0, lcf};
Point(65) = {1.841750e+02, 1.460857e+02, 0, lcf};
Point(66) = {1.846088e+02, 1.465196e+02, 0, lcf};
Point(67) = {1.883603e+02, 1.436359e+02, 0, lcf};
Point(68) = {1.851740e+02, 1.470847e+02, 0, lcf};
Point(69) = {1.861731e+02, 1.480838e+02, 0, lcf};
Point(70) = {1.363098e+02, 1.502709e+02, 0, lcf};
Point(71) = {1.351549e+02, 1.514258e+02, 0, lcf};
Point(73) = {1.392194e+02, 1.435391e+02, 0, lcf};
Point(76) = {1.351549e+02, 1.491160e+02, 0, lcf};
Point(78) = {1.346630e+02, 1.352273e+02, 0, lcf};
Point(79) = {1.353259e+02, 1.345643e+02, 0, lcf};
Point(81) = {1.350942e+02, 1.407603e+02, 0, lcf};
Point(82) = {1.679078e+02, 1.320870e+02, 0, lcf};
Point(83) = {1.689513e+02, 1.310435e+02, 0, lcf};
Point(85) = {1.376081e+02, 1.322822e+02, 0, lcf};
Point(87) = {1.917295e+02, 1.323628e+02, 0, lcf};
Point(88) = {1.929110e+02, 1.311814e+02, 0, lcf};
Point(90) = {1.834482e+02, 1.322670e+02, 0, lcf};
Point(91) = {1.823148e+02, 1.311335e+02, 0, lcf};
Point(93) = {1.373584e+02, 1.314250e+02, 0, lcf};
Point(94) = {1.366459e+02, 1.307125e+02, 0, lcf};
Point(96) = {1.625786e+02, 1.374163e+02, 0, lcf};
Point(98) = {1.834761e+02, 1.323887e+02, 0, lcf};
Point(100) = {1.778797e+02, 1.315698e+02, 0, lcf};
Point(101) = {1.921661e+02, 1.319263e+02, 0, lcf};
Point(103) = {1.495440e+02, 1.336644e+02, 0, lcf};
Point(104) = {1.911463e+02, 1.347591e+02, 0, lcf};
Point(105) = {1.930732e+02, 1.328323e+02, 0, lcf};
Point(107) = {1.930732e+02, 1.366859e+02, 0, lcf};
Point(109) = {1.948213e+02, 1.394355e+02, 0, lcf};
Point(110) = {1.949107e+02, 1.393462e+02, 0, lcf};
Point(112) = {1.933389e+02, 1.386572e+02, 0, lcf};
Point(115) = {1.933623e+02, 1.420027e+02, 0, lcf};
Point(116) = {1.795391e+02, 1.547178e+02, 0, lcf};
Point(118) = {1.730943e+02, 1.676306e+02, 0, lcf};
Point(120) = {1.541026e+02, 1.666767e+02, 0, lcf};
Point(123) = {1.458895e+02, 1.656090e+02, 0, lcf};
Point(125) = {1.654513e+02, 1.696018e+02, 0, lcf};
Point(126) = {1.650532e+02, 1.692037e+02, 0, lcf};
Point(128) = {1.349409e+02, 1.690591e+02, 0, lcf};
Point(131) = {1.886825e+02, 1.636825e+02, 0, lcf};
Point(133) = {1.720193e+02, 1.599768e+02, 0, lcf};
Point(134) = {1.560186e+02, 1.439762e+02, 0, lcf};
Point(135) = {1.698603e+02, 1.643965e+02, 0, lcf};
Point(136) = {1.377867e+02, 1.434528e+02, 0, lcf};
Point(137) = {1.489747e+02, 1.619293e+02, 0, lcf};
Point(138) = {1.890158e+02, 1.429803e+02, 0, lcf};
Point(139) = {1.392143e+02, 1.433810e+02, 0, lcf};
Point(140) = {1.917601e+02, 1.323226e+02, 0, lcf};
Point(141) = {1.941917e+02, 1.378044e+02, 0, lcf};
Point(142) = {1.928082e+02, 1.414486e+02, 0, lcf};
// Boundary points
Point(72) = {1.340000e+02, 1.525807e+02, 0, lcf};
Point(74) = {1.340000e+02, 1.383196e+02, 0, lcf};
Point(75) = {1.340000e+02, 1.479611e+02, 0, lcf};
Point(77) = {1.340000e+02, 1.358903e+02, 0, lcf};
Point(80) = {1.340000e+02, 1.396661e+02, 0, lcf};
Point(84) = {1.699949e+02, 1.300000e+02, 0, lcf};
Point(86) = {1.398903e+02, 1.300000e+02, 0, lcf};
Point(89) = {1.940924e+02, 1.300000e+02, 0, lcf};
Point(92) = {1.811813e+02, 1.300000e+02, 0, lcf};
Point(95) = {1.359334e+02, 1.300000e+02, 0, lcf};
Point(97) = {1.858648e+02, 1.300000e+02, 0, lcf};
Point(99) = {1.763100e+02, 1.300000e+02, 0, lcf};
Point(102) = {1.458796e+02, 1.300000e+02, 0, lcf};
Point(106) = {1.950000e+02, 1.309054e+02, 0, lcf};
Point(108) = {1.950000e+02, 1.386128e+02, 0, lcf};
Point(111) = {1.950000e+02, 1.392568e+02, 0, lcf};
Point(113) = {1.950000e+02, 1.369961e+02, 0, lcf};
Point(114) = {1.950000e+02, 1.436404e+02, 0, lcf};
Point(117) = {1.642568e+02, 1.700000e+02, 0, lcf};
Point(119) = {1.754637e+02, 1.700000e+02, 0, lcf};
Point(121) = {1.574259e+02, 1.700000e+02, 0, lcf};
Point(122) = {1.414985e+02, 1.700000e+02, 0, lcf};
Point(124) = {1.658495e+02, 1.700000e+02, 0, lcf};
Point(127) = {1.340000e+02, 1.681183e+02, 0, lcf};
Point(129) = {1.358817e+02, 1.700000e+02, 0, lcf};
Point(130) = {1.823651e+02, 1.700000e+02, 0, lcf};
Point(132) = {1.950000e+02, 1.573651e+02, 0, lcf};
// Corner points
Point(143) = {1.340000e+02, 1.300000e+02, 0, lcf};
Point(144) = {1.950000e+02, 1.300000e+02, 0, lcf};
Point(145) = {1.950000e+02, 1.700000e+02, 0, lcf};
Point(146) = {1.340000e+02, 1.700000e+02, 0, lcf};

// Lines
Line(1) = {1, 2};
Line(2) = {2, 3};
Line(3) = {3, 4};
Line(4) = {4, 5};
Line(5) = {5, 6};
Line(6) = {6, 7};
Line(7) = {7, 8};
Line(8) = {8, 9};
Line(9) = {10, 11};
Line(10) = {11, 12};
Line(11) = {3, 13};
Line(12) = {13, 12};
Line(13) = {14, 15};
Line(14) = {15, 16};
Line(15) = {17, 18};
Line(16) = {18, 19};
Line(17) = {20, 21};
Line(18) = {21, 22};
Line(19) = {23, 24};
Line(20) = {24, 133};
Line(21) = {133, 25};
Line(22) = {26, 134};
Line(23) = {134, 27};
Line(24) = {27, 23};
Line(25) = {28, 29};
Line(26) = {29, 135};
Line(27) = {135, 30};
Line(28) = {28, 133};
Line(29) = {133, 31};
Line(30) = {31, 32};
Line(31) = {33, 34};
Line(32) = {34, 35};
Line(33) = {36, 37};
Line(34) = {37, 33};
Line(35) = {38, 136};
Line(36) = {136, 39};
Line(37) = {39, 40};
Line(38) = {40, 41};
Line(39) = {41, 42};
Line(40) = {43, 44};
Line(41) = {44, 137};
Line(42) = {137, 47};
Line(43) = {47, 45};
Line(44) = {43, 46};
Line(45) = {46, 137};
Line(46) = {48, 49};
Line(47) = {49, 50};
Line(48) = {51, 52};
Line(49) = {52, 138};
Line(50) = {138, 53};
Line(51) = {54, 55};
Line(52) = {55, 51};
Line(53) = {54, 56};
Line(54) = {56, 19};
Line(55) = {57, 136};
Line(56) = {136, 58};
Line(57) = {58, 59};
Line(58) = {59, 139};
Line(59) = {139, 60};
Line(60) = {60, 1};
Line(61) = {61, 62};
Line(62) = {62, 57};
Line(63) = {61, 63};
Line(64) = {63, 64};
Line(65) = {65, 66};
Line(66) = {66, 32};
Line(67) = {32, 67};
Line(68) = {67, 138};
Line(69) = {138, 14};
Line(70) = {65, 68};
Line(71) = {68, 69};
Line(72) = {70, 71};
Line(73) = {71, 72};
Line(74) = {1, 73};
Line(75) = {73, 139};
Line(76) = {139, 74};
Line(77) = {75, 76};
Line(78) = {76, 70};
Line(79) = {77, 78};
Line(80) = {78, 79};
Line(81) = {80, 81};
Line(82) = {81, 38};
Line(83) = {82, 83};
Line(84) = {83, 84};
Line(85) = {79, 85};
Line(86) = {85, 86};
Line(87) = {87, 140};
Line(88) = {140, 88};
Line(89) = {88, 89};
Line(90) = {90, 91};
Line(91) = {91, 92};
Line(92) = {93, 94};
Line(93) = {94, 95};
Line(94) = {84, 96};
Line(95) = {96, 134};
Line(96) = {134, 9};
Line(97) = {97, 98};
Line(98) = {98, 19};
Line(99) = {99, 100};
Line(100) = {100, 17};
Line(101) = {89, 101};
Line(102) = {101, 140};
Line(103) = {140, 20};
Line(104) = {102, 103};
Line(105) = {103, 48};
Line(106) = {104, 105};
Line(107) = {105, 106};
Line(108) = {104, 107};
Line(109) = {107, 141};
Line(110) = {141, 108};
Line(111) = {109, 110};
Line(112) = {110, 111};
Line(113) = {14, 112};
Line(114) = {112, 141};
Line(115) = {141, 113};
Line(116) = {114, 115};
Line(117) = {115, 142};
Line(118) = {142, 16};
Line(119) = {109, 142};
Line(120) = {142, 116};
Line(121) = {116, 135};
Line(122) = {135, 117};
Line(123) = {30, 118};
Line(124) = {118, 119};
Line(125) = {45, 120};
Line(126) = {120, 121};
Line(127) = {122, 123};
Line(128) = {123, 47};
Line(129) = {47, 10};
Line(130) = {124, 125};
Line(131) = {125, 126};
Line(132) = {127, 128};
Line(133) = {128, 129};
Line(134) = {130, 131};
Line(135) = {131, 132};
// Boundary lines
Line(136) = {143, 95};
Line(137) = {95, 86};
Line(138) = {86, 102};
Line(139) = {102, 84};
Line(140) = {84, 99};
Line(141) = {99, 92};
Line(142) = {92, 97};
Line(143) = {97, 89};
Line(144) = {89, 144};
Line(145) = {144, 106};
Line(146) = {106, 113};
Line(147) = {113, 108};
Line(148) = {108, 111};
Line(149) = {111, 114};
Line(150) = {114, 132};
Line(151) = {132, 145};
Line(152) = {145, 130};
Line(153) = {130, 119};
Line(154) = {119, 124};
Line(155) = {124, 117};
Line(156) = {117, 121};
Line(157) = {121, 122};
Line(158) = {122, 129};
Line(159) = {129, 146};
Line(160) = {146, 127};
Line(161) = {127, 72};
Line(162) = {72, 75};
Line(163) = {75, 80};
Line(164) = {80, 74};
Line(165) = {74, 77};
Line(166) = {77, 143};

Line Loop(1) = {136, 137, 138, 139, 140, 141, 142, 143, 144, 145, 146, 147, 148, 149, 150, 151, 152, 153, 154, 155, 156, 157, 158, 159, 160, 
161, 162, 163, 164, 165, 166};
Plane Surface(1) = {1};

// Including fractures in triangulation
Line{1, 2, 3, 4, 5, 6, 7, 8, 9, 10, 11, 12, 13, 14, 15, 16, 17, 18, 19, 20, 21, 22, 23, 24, 25, 26, 27, 28, 29, 30, 31, 32, 33, 34, 35, 36, 37, 38, 39, 40, 
41, 42, 43, 44, 45, 46, 47, 48, 49, 50, 51, 52, 53, 54, 55, 56, 57, 58, 59, 60, 61, 62, 63, 64, 65, 66, 67, 68, 69, 70, 71, 72, 73, 74, 75, 76, 77, 78, 79, 80, 
81, 82, 83, 84, 85, 86, 87, 88, 89, 90, 91, 92, 93, 94, 95, 96, 97, 98, 99, 100, 101, 102, 103, 104, 105, 106, 107, 108, 109, 110, 111, 112, 113, 114, 115, 116, 117, 118, 119, 120, 
121, 122, 123, 124, 125, 126, 127, 128, 129, 130, 131, 132, 133, 134, 135} In Surface {1};

// Physical entities

Physical Line(OPEN_FRACTURES) = {1, 2, 3, 4, 5, 6, 7, 8, 9, 10, 11, 12, 13, 14, 15, 16, 17, 18, 19, 20, 21, 22, 23, 24, 25, 26, 27, 28, 29, 30, 31, 32, 33, 34, 35, 36, 37, 38, 39, 40, 
41, 42, 43, 44, 45, 46, 47, 48, 49, 50, 51, 52, 53, 54, 55, 56, 57, 58, 59, 60, 61, 62, 63, 64, 65, 66, 67, 68, 69, 70, 71, 72, 73, 74, 75, 76, 77, 78, 79, 80, 
81, 82, 83, 84, 85, 86, 87, 88, 89, 90, 91, 92, 93, 94, 95, 96, 97, 98, 99, 100, 101, 102, 103, 104, 105, 106, 107, 108, 109, 110, 111, 112, 113, 114, 115, 116, 117, 118, 119, 120, 
121, 122, 123, 124, 125, 126, 127, 128, 129, 130, 131, 132, 133, 134, 135};

Physical Surface(MATRIX) = {1};
