// Gmsh 2D geometry specification

// Density of mesh near Points
lcf = 4.252739e-01;

// Geometrical entities = 1d and 2D regions indices
// #2D_REGIONS
MATRIX = 666;

// #1D_REGIONS
OPEN_FRACTURES = 777;

// Points
Point(1) = {4.717000e+01, 8.184000e+01, 0, lcf};
Point(2) = {4.751000e+01, 8.146000e+01, 0, lcf};
Point(3) = {4.785000e+01, 8.109000e+01, 0, lcf};
Point(4) = {4.814000e+01, 8.068000e+01, 0, lcf};
Point(5) = {4.843000e+01, 8.027000e+01, 0, lcf};
Point(6) = {4.879000e+01, 7.991000e+01, 0, lcf};
Point(7) = {4.915000e+01, 7.956000e+01, 0, lcf};
Point(8) = {4.949000e+01, 7.919000e+01, 0, lcf};
Point(9) = {4.984000e+01, 7.882000e+01, 0, lcf};
Point(10) = {4.995000e+01, 7.833000e+01, 0, lcf};
Point(11) = {5.007000e+01, 7.785000e+01, 0, lcf};
Point(12) = {5.032000e+01, 7.741000e+01, 0, lcf};
Point(13) = {5.056000e+01, 7.697000e+01, 0, lcf};
Point(14) = {5.080000e+01, 7.652000e+01, 0, lcf};
Point(15) = {4.749000e+01, 8.473000e+01, 0, lcf};
Point(16) = {4.770000e+01, 8.428000e+01, 0, lcf};
Point(17) = {4.791000e+01, 8.383000e+01, 0, lcf};
Point(18) = {4.809000e+01, 8.337000e+01, 0, lcf};
Point(19) = {4.827000e+01, 8.291000e+01, 0, lcf};
Point(20) = {4.835000e+01, 8.242000e+01, 0, lcf};
Point(21) = {4.843000e+01, 8.194000e+01, 0, lcf};
Point(22) = {4.854000e+01, 8.146000e+01, 0, lcf};
Point(23) = {4.865000e+01, 8.098000e+01, 0, lcf};
Point(24) = {4.876000e+01, 8.050000e+01, 0, lcf};
Point(25) = {4.886000e+01, 8.001000e+01, 0, lcf};
Point(26) = {4.894000e+01, 7.952000e+01, 0, lcf};
Point(27) = {4.901000e+01, 7.904000e+01, 0, lcf};
Point(28) = {4.919000e+01, 7.858000e+01, 0, lcf};
Point(29) = {4.938000e+01, 7.812000e+01, 0, lcf};
Point(30) = {4.954000e+01, 7.765000e+01, 0, lcf};
Point(31) = {4.971000e+01, 7.719000e+01, 0, lcf};
Point(32) = {4.983000e+01, 7.671000e+01, 0, lcf};
Point(33) = {4.995000e+01, 7.623000e+01, 0, lcf};
Point(34) = {5.013000e+01, 7.577000e+01, 0, lcf};
Point(35) = {4.944000e+01, 8.515000e+01, 0, lcf};
Point(36) = {4.908000e+01, 8.484000e+01, 0, lcf};
Point(37) = {4.872000e+01, 8.452000e+01, 0, lcf};
Point(38) = {4.832000e+01, 8.426000e+01, 0, lcf};
Point(40) = {5.092000e+01, 8.490000e+01, 0, lcf};
Point(41) = {5.101000e+01, 8.443000e+01, 0, lcf};
Point(42) = {5.103000e+01, 8.395000e+01, 0, lcf};
Point(43) = {5.105000e+01, 8.346000e+01, 0, lcf};
Point(44) = {5.105000e+01, 8.298000e+01, 0, lcf};
Point(45) = {5.091000e+01, 8.498000e+01, 0, lcf};
Point(46) = {5.089000e+01, 8.451000e+01, 0, lcf};
Point(47) = {5.088000e+01, 8.404000e+01, 0, lcf};
Point(48) = {5.083000e+01, 8.357000e+01, 0, lcf};
Point(49) = {5.079000e+01, 8.310000e+01, 0, lcf};
Point(50) = {5.076000e+01, 8.263000e+01, 0, lcf};
Point(51) = {5.073000e+01, 8.216000e+01, 0, lcf};
Point(52) = {5.070000e+01, 8.169000e+01, 0, lcf};
Point(53) = {5.068000e+01, 8.122000e+01, 0, lcf};
Point(54) = {5.073000e+01, 8.075000e+01, 0, lcf};
Point(55) = {5.079000e+01, 8.028000e+01, 0, lcf};
Point(56) = {5.077000e+01, 7.982000e+01, 0, lcf};
Point(57) = {5.075000e+01, 7.935000e+01, 0, lcf};
Point(58) = {5.066000e+01, 7.889000e+01, 0, lcf};
Point(59) = {5.056000e+01, 7.843000e+01, 0, lcf};
Point(60) = {5.042000e+01, 7.798000e+01, 0, lcf};
Point(61) = {5.025000e+01, 8.009000e+01, 0, lcf};
Point(62) = {4.985000e+01, 7.980000e+01, 0, lcf};
Point(63) = {4.945000e+01, 7.951000e+01, 0, lcf};
Point(64) = {4.915000e+01, 7.913000e+01, 0, lcf};
Point(65) = {4.884000e+01, 7.875000e+01, 0, lcf};
Point(66) = {4.861000e+01, 7.832000e+01, 0, lcf};
Point(67) = {4.837000e+01, 7.788000e+01, 0, lcf};
Point(68) = {4.814000e+01, 7.744000e+01, 0, lcf};
Point(69) = {4.792000e+01, 7.700000e+01, 0, lcf};
Point(70) = {4.766000e+01, 7.658000e+01, 0, lcf};
Point(71) = {4.741000e+01, 7.616000e+01, 0, lcf};
Point(72) = {4.712000e+01, 7.576000e+01, 0, lcf};
Point(73) = {5.030000e+01, 7.762000e+01, 0, lcf};
Point(74) = {4.983000e+01, 7.768000e+01, 0, lcf};
Point(75) = {4.936000e+01, 7.773000e+01, 0, lcf};
Point(76) = {4.889000e+01, 7.769000e+01, 0, lcf};
Point(77) = {4.842000e+01, 7.765000e+01, 0, lcf};
Point(78) = {4.797000e+01, 7.751000e+01, 0, lcf};
Point(79) = {4.751000e+01, 7.738000e+01, 0, lcf};
Point(80) = {4.705000e+01, 7.728000e+01, 0, lcf};
Point(81) = {4.824000e+01, 7.759000e+01, 0, lcf};
Point(82) = {4.784000e+01, 7.731000e+01, 0, lcf};
Point(83) = {4.744000e+01, 7.704000e+01, 0, lcf};
Point(84) = {4.706000e+01, 7.674000e+01, 0, lcf};
Point(85) = {5.023000e+01, 7.994000e+01, 0, lcf};
Point(86) = {5.027000e+01, 7.948000e+01, 0, lcf};
Point(87) = {5.032000e+01, 7.902000e+01, 0, lcf};
Point(88) = {5.030000e+01, 7.856000e+01, 0, lcf};
Point(89) = {5.029000e+01, 7.810000e+01, 0, lcf};
Point(90) = {5.025000e+01, 7.718000e+01, 0, lcf};
Point(91) = {5.023000e+01, 7.672000e+01, 0, lcf};
Point(92) = {5.021000e+01, 7.626000e+01, 0, lcf};
Point(93) = {5.027000e+01, 7.581000e+01, 0, lcf};
Point(94) = {5.513000e+01, 7.551000e+01, 0, lcf};
Point(95) = {5.478000e+01, 7.588000e+01, 0, lcf};
Point(96) = {5.444000e+01, 7.624000e+01, 0, lcf};
Point(97) = {5.412000e+01, 7.664000e+01, 0, lcf};
Point(98) = {5.380000e+01, 7.703000e+01, 0, lcf};
Point(99) = {5.353000e+01, 7.745000e+01, 0, lcf};
Point(100) = {5.325000e+01, 7.787000e+01, 0, lcf};
Point(101) = {5.299000e+01, 7.831000e+01, 0, lcf};
Point(102) = {5.274000e+01, 7.875000e+01, 0, lcf};
Point(103) = {5.225000e+01, 7.869000e+01, 0, lcf};
Point(104) = {5.175000e+01, 7.864000e+01, 0, lcf};
Point(105) = {5.139000e+01, 7.828000e+01, 0, lcf};
Point(106) = {5.103000e+01, 7.793000e+01, 0, lcf};
Point(107) = {5.075000e+01, 7.753000e+01, 0, lcf};
Point(108) = {5.047000e+01, 7.712000e+01, 0, lcf};
Point(109) = {5.049000e+01, 7.662000e+01, 0, lcf};
Point(110) = {5.050000e+01, 7.611000e+01, 0, lcf};
Point(111) = {5.046000e+01, 7.561000e+01, 0, lcf};
Point(112) = {5.049000e+01, 7.593000e+01, 0, lcf};
Point(113) = {5.092000e+01, 7.601000e+01, 0, lcf};
Point(114) = {5.136000e+01, 7.610000e+01, 0, lcf};
Point(115) = {5.179000e+01, 7.614000e+01, 0, lcf};
Point(116) = {5.222000e+01, 7.619000e+01, 0, lcf};
Point(117) = {5.262000e+01, 7.638000e+01, 0, lcf};
Point(118) = {5.302000e+01, 7.657000e+01, 0, lcf};
Point(119) = {5.337000e+01, 7.683000e+01, 0, lcf};
Point(121) = {5.509000e+01, 7.540000e+01, 0, lcf};
Point(122) = {5.535000e+01, 7.583000e+01, 0, lcf};
Point(123) = {5.563000e+01, 7.623000e+01, 0, lcf};
Point(124) = {5.591000e+01, 7.663000e+01, 0, lcf};
Point(125) = {5.624000e+01, 7.700000e+01, 0, lcf};
Point(126) = {5.656000e+01, 7.738000e+01, 0, lcf};
Point(127) = {5.681000e+01, 7.780000e+01, 0, lcf};
Point(128) = {5.663000e+01, 8.362000e+01, 0, lcf};
Point(129) = {5.616000e+01, 8.344000e+01, 0, lcf};
Point(130) = {5.569000e+01, 8.326000e+01, 0, lcf};
Point(131) = {5.527000e+01, 8.300000e+01, 0, lcf};
Point(132) = {5.484000e+01, 8.273000e+01, 0, lcf};
Point(133) = {5.442000e+01, 8.245000e+01, 0, lcf};
Point(134) = {5.401000e+01, 8.217000e+01, 0, lcf};
Point(135) = {5.364000e+01, 8.183000e+01, 0, lcf};
Point(136) = {5.327000e+01, 8.150000e+01, 0, lcf};
Point(137) = {5.291000e+01, 8.114000e+01, 0, lcf};
Point(138) = {5.412000e+01, 8.162000e+01, 0, lcf};
Point(139) = {5.369000e+01, 8.139000e+01, 0, lcf};
Point(140) = {5.325000e+01, 8.116000e+01, 0, lcf};
Point(141) = {5.283000e+01, 8.092000e+01, 0, lcf};
Point(142) = {5.240000e+01, 8.068000e+01, 0, lcf};
Point(143) = {5.197000e+01, 8.044000e+01, 0, lcf};
Point(144) = {5.379000e+01, 8.517000e+01, 0, lcf};
Point(145) = {5.416000e+01, 8.486000e+01, 0, lcf};
Point(146) = {5.452000e+01, 8.456000e+01, 0, lcf};
Point(147) = {5.480000e+01, 8.418000e+01, 0, lcf};
Point(148) = {5.507000e+01, 8.379000e+01, 0, lcf};
Point(149) = {5.529000e+01, 8.337000e+01, 0, lcf};
Point(150) = {5.550000e+01, 8.295000e+01, 0, lcf};
Point(151) = {5.563000e+01, 8.249000e+01, 0, lcf};
Point(152) = {5.577000e+01, 8.204000e+01, 0, lcf};
Point(153) = {5.595000e+01, 8.160000e+01, 0, lcf};
Point(154) = {5.613000e+01, 8.116000e+01, 0, lcf};
Point(155) = {5.629000e+01, 8.072000e+01, 0, lcf};
Point(156) = {5.645000e+01, 8.027000e+01, 0, lcf};
Point(157) = {5.659000e+01, 7.982000e+01, 0, lcf};
Point(158) = {5.673000e+01, 7.937000e+01, 0, lcf};
Point(159) = {5.692000e+01, 7.893000e+01, 0, lcf};
Point(160) = {5.254000e+01, 8.526000e+01, 0, lcf};
Point(161) = {5.291000e+01, 8.498000e+01, 0, lcf};
Point(162) = {5.328000e+01, 8.470000e+01, 0, lcf};
Point(163) = {5.356000e+01, 8.432000e+01, 0, lcf};
Point(164) = {5.384000e+01, 8.395000e+01, 0, lcf};
Point(165) = {5.412000e+01, 8.357000e+01, 0, lcf};
Point(166) = {5.440000e+01, 8.319000e+01, 0, lcf};
Point(167) = {5.461000e+01, 8.277000e+01, 0, lcf};
Point(168) = {5.482000e+01, 8.235000e+01, 0, lcf};
Point(169) = {5.497000e+01, 8.191000e+01, 0, lcf};
Point(170) = {5.513000e+01, 8.147000e+01, 0, lcf};
Point(171) = {5.529000e+01, 8.103000e+01, 0, lcf};
Point(172) = {5.546000e+01, 8.059000e+01, 0, lcf};
Point(173) = {5.564000e+01, 8.016000e+01, 0, lcf};
Point(174) = {5.583000e+01, 7.973000e+01, 0, lcf};
Point(175) = {5.603000e+01, 7.931000e+01, 0, lcf};
Point(176) = {5.219000e+01, 8.447000e+01, 0, lcf};
Point(177) = {5.252000e+01, 8.410000e+01, 0, lcf};
Point(178) = {5.285000e+01, 8.373000e+01, 0, lcf};
Point(179) = {5.309000e+01, 8.329000e+01, 0, lcf};
Point(180) = {5.333000e+01, 8.286000e+01, 0, lcf};
Point(181) = {5.360000e+01, 8.244000e+01, 0, lcf};
Point(182) = {5.387000e+01, 8.202000e+01, 0, lcf};
Point(183) = {5.436000e+01, 8.116000e+01, 0, lcf};
Point(184) = {5.466000e+01, 8.076000e+01, 0, lcf};
Point(185) = {5.496000e+01, 8.036000e+01, 0, lcf};
Point(186) = {5.529000e+01, 7.999000e+01, 0, lcf};
Point(187) = {5.561000e+01, 7.961000e+01, 0, lcf};
Point(188) = {5.597000e+01, 7.927000e+01, 0, lcf};
Point(189) = {5.634000e+01, 7.893000e+01, 0, lcf};
Point(190) = {5.673000e+01, 7.863000e+01, 0, lcf};
Point(191) = {5.152000e+01, 7.696000e+01, 0, lcf};
Point(192) = {5.201000e+01, 7.698000e+01, 0, lcf};
Point(193) = {5.251000e+01, 7.699000e+01, 0, lcf};
Point(194) = {5.300000e+01, 7.701000e+01, 0, lcf};
Point(195) = {5.349000e+01, 7.703000e+01, 0, lcf};
Point(196) = {5.398000e+01, 7.709000e+01, 0, lcf};
Point(197) = {5.447000e+01, 7.715000e+01, 0, lcf};
Point(198) = {5.495000e+01, 7.729000e+01, 0, lcf};
Point(199) = {5.542000e+01, 7.742000e+01, 0, lcf};
Point(200) = {5.590000e+01, 7.753000e+01, 0, lcf};
Point(201) = {5.638000e+01, 7.765000e+01, 0, lcf};
Point(202) = {5.686000e+01, 7.777000e+01, 0, lcf};
Point(203) = {5.655000e+01, 7.608000e+01, 0, lcf};
Point(204) = {5.604000e+01, 7.608000e+01, 0, lcf};
Point(205) = {5.554000e+01, 7.607000e+01, 0, lcf};
Point(206) = {5.504000e+01, 7.594000e+01, 0, lcf};
Point(207) = {5.455000e+01, 7.580000e+01, 0, lcf};
Point(208) = {5.404000e+01, 7.574000e+01, 0, lcf};
Point(209) = {5.353000e+01, 7.568000e+01, 0, lcf};
Point(210) = {5.306000e+01, 7.548000e+01, 0, lcf};
Point(211) = {5.259000e+01, 7.528000e+01, 0, lcf};
Point(212) = {5.212000e+01, 7.514000e+01, 0, lcf};
Point(213) = {5.224000e+01, 8.465000e+01, 0, lcf};
Point(214) = {5.200000e+01, 8.421000e+01, 0, lcf};
Point(215) = {5.177000e+01, 8.377000e+01, 0, lcf};
Point(216) = {5.152000e+01, 8.333000e+01, 0, lcf};
Point(217) = {5.128000e+01, 8.289000e+01, 0, lcf};
Point(218) = {5.106000e+01, 8.243000e+01, 0, lcf};
Point(219) = {5.084000e+01, 8.198000e+01, 0, lcf};
Point(220) = {5.068000e+01, 8.150000e+01, 0, lcf};
Point(221) = {5.052000e+01, 8.103000e+01, 0, lcf};
Point(222) = {5.039000e+01, 8.054000e+01, 0, lcf};
Point(223) = {5.012000e+01, 7.957000e+01, 0, lcf};
Point(224) = {4.997000e+01, 7.909000e+01, 0, lcf};
Point(225) = {4.984000e+01, 7.860000e+01, 0, lcf};
Point(226) = {4.971000e+01, 7.812000e+01, 0, lcf};
Point(227) = {4.938000e+01, 7.717000e+01, 0, lcf};
Point(228) = {4.919000e+01, 7.670000e+01, 0, lcf};
Point(229) = {4.901000e+01, 7.623000e+01, 0, lcf};
Point(230) = {4.877000e+01, 7.578000e+01, 0, lcf};
Point(231) = {5.103000e+01, 7.607000e+01, 0, lcf};
Point(232) = {5.032000e+01, 7.532000e+01, 0, lcf};
Point(233) = {4.792000e+01, 8.399000e+01, 0, lcf};
Point(234) = {5.105000e+01, 8.250000e+01, 0, lcf};
Point(235) = {5.027000e+01, 7.753000e+01, 0, lcf};
Point(236) = {4.683000e+01, 7.536000e+01, 0, lcf};
Point(238) = {4.668000e+01, 7.644000e+01, 0, lcf};
Point(239) = {5.043000e+01, 7.510000e+01, 0, lcf};
Point(240) = {5.372000e+01, 7.710000e+01, 0, lcf};
Point(241) = {5.705000e+01, 7.823000e+01, 0, lcf};
Point(242) = {5.256000e+01, 8.078000e+01, 0, lcf};
Point(243) = {5.155000e+01, 8.019000e+01, 0, lcf};
Point(244) = {5.711000e+01, 7.850000e+01, 0, lcf};
Point(245) = {5.622000e+01, 7.888000e+01, 0, lcf};
Point(246) = {5.712000e+01, 7.832000e+01, 0, lcf};
Point(248) = {5.164000e+01, 7.501000e+01, 0, lcf};
Point(249) = {4.854000e+01, 7.534000e+01, 0, lcf};
Point(250) = {4.933260e+01, 7.936129e+01, 0, lcf};
Point(251) = {4.986675e+01, 7.870083e+01, 0, lcf};
Point(252) = {5.019291e+01, 7.763367e+01, 0, lcf};
Point(253) = {4.889261e+01, 7.981024e+01, 0, lcf};
Point(254) = {4.903158e+01, 7.898484e+01, 0, lcf};
Point(255) = {4.951851e+01, 7.771314e+01, 0, lcf};
Point(256) = {5.678028e+01, 7.775007e+01, 0, lcf};
Point(257) = {5.542655e+01, 8.309691e+01, 0, lcf};
Point(258) = {5.468250e+01, 8.262500e+01, 0, lcf};
Point(259) = {5.365553e+01, 7.705027e+01, 0, lcf};
Point(260) = {5.610077e+01, 7.914983e+01, 0, lcf};
// Boundary points
Point(39) = {5.082000e+01, 8.537000e+01, 0, lcf};
Point(120) = {5.484000e+01, 7.497000e+01, 0, lcf};
Point(237) = {4.659000e+01, 7.717000e+01, 0, lcf};
Point(247) = {5.733000e+01, 7.790000e+01, 0, lcf};
Point(261) = {4.659000e+01, 7.497000e+01, 0, lcf};
Point(262) = {5.733000e+01, 7.497000e+01, 0, lcf};
Point(263) = {5.733000e+01, 8.537000e+01, 0, lcf};
Point(264) = {4.659000e+01, 8.537000e+01, 0, lcf};

// Lines
Line(1) = {1, 2};
Line(2) = {3, 4};
Line(3) = {5, 6};
Line(4) = {7, 250};
Line(5) = {250, 8};
Line(6) = {9, 251};
Line(7) = {251, 10};
Line(8) = {11, 252};
Line(9) = {252, 235};
Line(10) = {235, 12};
Line(11) = {13, 14};
Line(12) = {15, 16};
Line(13) = {17, 18};
Line(14) = {19, 20};
Line(15) = {21, 22};
Line(16) = {23, 24};
Line(17) = {25, 253};
Line(18) = {253, 26};
Line(19) = {27, 254};
Line(20) = {254, 28};
Line(21) = {29, 255};
Line(22) = {255, 30};
Line(23) = {31, 32};
Line(24) = {33, 34};
Line(25) = {35, 36};
Line(26) = {37, 38};
Line(27) = {39, 45};
Line(28) = {45, 40};
Line(29) = {41, 42};
Line(30) = {43, 44};
Line(31) = {45, 46};
Line(32) = {47, 48};
Line(33) = {49, 50};
Line(34) = {51, 52};
Line(35) = {53, 54};
Line(36) = {55, 56};
Line(37) = {57, 58};
Line(38) = {59, 60};
Line(39) = {61, 62};
Line(40) = {63, 250};
Line(41) = {250, 64};
Line(42) = {65, 66};
Line(43) = {67, 81};
Line(44) = {81, 68};
Line(45) = {69, 70};
Line(46) = {71, 72};
Line(47) = {73, 252};
Line(48) = {252, 74};
Line(49) = {75, 76};
Line(50) = {77, 81};
Line(51) = {81, 78};
Line(52) = {79, 80};
Line(53) = {81, 82};
Line(54) = {83, 84};
Line(55) = {85, 86};
Line(56) = {87, 88};
Line(57) = {89, 73};
Line(58) = {90, 91};
Line(59) = {92, 93};
Line(60) = {94, 95};
Line(61) = {96, 97};
Line(62) = {98, 99};
Line(63) = {100, 101};
Line(64) = {102, 103};
Line(65) = {104, 105};
Line(66) = {106, 107};
Line(67) = {108, 109};
Line(68) = {110, 111};
Line(69) = {112, 113};
Line(70) = {114, 115};
Line(71) = {116, 117};
Line(72) = {118, 119};
Line(73) = {120, 121};
Line(74) = {122, 205};
Line(75) = {205, 123};
Line(76) = {124, 125};
Line(77) = {126, 256};
Line(78) = {256, 127};
Line(79) = {128, 129};
Line(80) = {130, 257};
Line(81) = {257, 131};
Line(82) = {132, 258};
Line(83) = {258, 133};
Line(84) = {134, 182};
Line(85) = {182, 135};
Line(86) = {136, 137};
Line(87) = {138, 139};
Line(88) = {140, 141};
Line(89) = {142, 143};
Line(90) = {144, 145};
Line(91) = {146, 147};
Line(92) = {148, 149};
Line(93) = {150, 151};
Line(94) = {152, 153};
Line(95) = {154, 155};
Line(96) = {156, 157};
Line(97) = {158, 159};
Line(98) = {160, 161};
Line(99) = {162, 163};
Line(100) = {164, 165};
Line(101) = {166, 167};
Line(102) = {168, 169};
Line(103) = {170, 171};
Line(104) = {172, 173};
Line(105) = {174, 175};
Line(106) = {176, 177};
Line(107) = {178, 179};
Line(108) = {180, 181};
Line(109) = {182, 138};
Line(110) = {183, 184};
Line(111) = {185, 186};
Line(112) = {187, 188};
Line(113) = {189, 190};
Line(114) = {191, 192};
Line(115) = {193, 194};
Line(116) = {195, 259};
Line(117) = {259, 98};
Line(118) = {98, 196};
Line(119) = {197, 198};
Line(120) = {199, 200};
Line(121) = {201, 256};
Line(122) = {256, 202};
Line(123) = {203, 204};
Line(124) = {205, 206};
Line(125) = {207, 208};
Line(126) = {209, 210};
Line(127) = {211, 212};
Line(128) = {213, 214};
Line(129) = {215, 216};
Line(130) = {217, 218};
Line(131) = {219, 220};
Line(132) = {221, 222};
Line(133) = {61, 85};
Line(134) = {85, 223};
Line(135) = {224, 251};
Line(136) = {251, 225};
Line(137) = {226, 255};
Line(138) = {227, 228};
Line(139) = {229, 230};
Line(140) = {2, 3};
Line(141) = {4, 5};
Line(142) = {6, 253};
Line(143) = {253, 7};
Line(144) = {8, 9};
Line(145) = {10, 11};
Line(146) = {12, 108};
Line(147) = {108, 13};
Line(148) = {14, 231};
Line(149) = {16, 17};
Line(150) = {18, 19};
Line(151) = {20, 21};
Line(152) = {22, 23};
Line(153) = {24, 25};
Line(154) = {26, 27};
Line(155) = {28, 29};
Line(156) = {30, 31};
Line(157) = {32, 33};
Line(158) = {34, 232};
Line(159) = {36, 37};
Line(160) = {38, 233};
Line(161) = {40, 41};
Line(162) = {42, 43};
Line(163) = {44, 234};
Line(164) = {46, 47};
Line(165) = {48, 49};
Line(166) = {50, 51};
Line(167) = {52, 220};
Line(168) = {220, 53};
Line(169) = {54, 55};
Line(170) = {56, 57};
Line(171) = {58, 59};
Line(172) = {60, 73};
Line(173) = {73, 235};
Line(174) = {62, 63};
Line(175) = {64, 254};
Line(176) = {254, 65};
Line(177) = {66, 67};
Line(178) = {68, 69};
Line(179) = {70, 71};
Line(180) = {72, 236};
Line(181) = {74, 255};
Line(182) = {255, 75};
Line(183) = {76, 77};
Line(184) = {78, 79};
Line(185) = {80, 237};
Line(186) = {82, 83};
Line(187) = {84, 238};
Line(188) = {86, 87};
Line(189) = {88, 89};
Line(190) = {235, 90};
Line(191) = {91, 92};
Line(192) = {93, 232};
Line(193) = {95, 96};
Line(194) = {97, 98};
Line(195) = {99, 100};
Line(196) = {101, 102};
Line(197) = {103, 104};
Line(198) = {105, 106};
Line(199) = {107, 108};
Line(200) = {109, 110};
Line(201) = {111, 239};
Line(202) = {113, 114};
Line(203) = {115, 116};
Line(204) = {117, 118};
Line(205) = {119, 259};
Line(206) = {259, 240};
Line(207) = {121, 122};
Line(208) = {123, 124};
Line(209) = {125, 126};
Line(210) = {127, 241};
Line(211) = {129, 130};
Line(212) = {131, 132};
Line(213) = {133, 134};
Line(214) = {135, 136};
Line(215) = {137, 242};
Line(216) = {139, 140};
Line(217) = {141, 142};
Line(218) = {143, 243};
Line(219) = {145, 146};
Line(220) = {147, 148};
Line(221) = {149, 257};
Line(222) = {257, 150};
Line(223) = {151, 152};
Line(224) = {153, 154};
Line(225) = {155, 156};
Line(226) = {157, 158};
Line(227) = {159, 244};
Line(228) = {161, 162};
Line(229) = {163, 164};
Line(230) = {165, 166};
Line(231) = {167, 258};
Line(232) = {258, 168};
Line(233) = {169, 170};
Line(234) = {171, 172};
Line(235) = {173, 174};
Line(236) = {175, 260};
Line(237) = {260, 245};
Line(238) = {177, 178};
Line(239) = {179, 180};
Line(240) = {181, 182};
Line(241) = {138, 183};
Line(242) = {184, 185};
Line(243) = {186, 187};
Line(244) = {188, 260};
Line(245) = {260, 189};
Line(246) = {190, 246};
Line(247) = {192, 193};
Line(248) = {194, 195};
Line(249) = {196, 197};
Line(250) = {198, 199};
Line(251) = {200, 201};
Line(252) = {202, 247};
Line(253) = {204, 205};
Line(254) = {206, 95};
Line(255) = {95, 207};
Line(256) = {208, 209};
Line(257) = {210, 211};
Line(258) = {212, 248};
Line(259) = {214, 215};
Line(260) = {216, 217};
Line(261) = {218, 219};
Line(262) = {220, 221};
Line(263) = {222, 61};
Line(264) = {223, 224};
Line(265) = {225, 226};
Line(266) = {30, 227};
Line(267) = {228, 229};
Line(268) = {230, 249};
// Boundary lines
Line(269) = {261, 120};
Line(270) = {120, 262};
Line(271) = {262, 247};
Line(272) = {247, 263};
Line(273) = {263, 39};
Line(274) = {39, 264};
Line(275) = {264, 237};
Line(276) = {237, 261};

Line Loop(1) = {269, 270, 271, 272, 273, 274, 275, 276};
Plane Surface(1) = {1};

// Including fractures in triangulation
Line{1, 2, 3, 4, 5, 6, 7, 8, 9, 10, 11, 12, 13, 14, 15, 16, 17, 18, 19, 20, 21, 22, 23, 24, 25, 26, 27, 28, 29, 30, 31, 32, 33, 34, 35, 36, 37, 38, 39, 40, 
41, 42, 43, 44, 45, 46, 47, 48, 49, 50, 51, 52, 53, 54, 55, 56, 57, 58, 59, 60, 61, 62, 63, 64, 65, 66, 67, 68, 69, 70, 71, 72, 73, 74, 75, 76, 77, 78, 79, 80, 
81, 82, 83, 84, 85, 86, 87, 88, 89, 90, 91, 92, 93, 94, 95, 96, 97, 98, 99, 100, 101, 102, 103, 104, 105, 106, 107, 108, 109, 110, 111, 112, 113, 114, 115, 116, 117, 118, 119, 120, 
121, 122, 123, 124, 125, 126, 127, 128, 129, 130, 131, 132, 133, 134, 135, 136, 137, 138, 139, 140, 141, 142, 143, 144, 145, 146, 147, 148, 149, 150, 151, 152, 153, 154, 155, 156, 157, 158, 159, 160, 
161, 162, 163, 164, 165, 166, 167, 168, 169, 170, 171, 172, 173, 174, 175, 176, 177, 178, 179, 180, 181, 182, 183, 184, 185, 186, 187, 188, 189, 190, 191, 192, 193, 194, 195, 196, 197, 198, 199, 200, 
201, 202, 203, 204, 205, 206, 207, 208, 209, 210, 211, 212, 213, 214, 215, 216, 217, 218, 219, 220, 221, 222, 223, 224, 225, 226, 227, 228, 229, 230, 231, 232, 233, 234, 235, 236, 237, 238, 239, 240, 
241, 242, 243, 244, 245, 246, 247, 248, 249, 250, 251, 252, 253, 254, 255, 256, 257, 258, 259, 260, 261, 262, 263, 264, 265, 266, 267, 268} In Surface {1};

// Physical entities

Physical Line(OPEN_FRACTURES) = {1, 2, 3, 4, 5, 6, 7, 8, 9, 10, 11, 12, 13, 14, 15, 16, 17, 18, 19, 20, 21, 22, 23, 24, 25, 26, 27, 28, 29, 30, 31, 32, 33, 34, 35, 36, 37, 38, 39, 40, 
41, 42, 43, 44, 45, 46, 47, 48, 49, 50, 51, 52, 53, 54, 55, 56, 57, 58, 59, 60, 61, 62, 63, 64, 65, 66, 67, 68, 69, 70, 71, 72, 73, 74, 75, 76, 77, 78, 79, 80, 
81, 82, 83, 84, 85, 86, 87, 88, 89, 90, 91, 92, 93, 94, 95, 96, 97, 98, 99, 100, 101, 102, 103, 104, 105, 106, 107, 108, 109, 110, 111, 112, 113, 114, 115, 116, 117, 118, 119, 120, 
121, 122, 123, 124, 125, 126, 127, 128, 129, 130, 131, 132, 133, 134, 135, 136, 137, 138, 139, 140, 141, 142, 143, 144, 145, 146, 147, 148, 149, 150, 151, 152, 153, 154, 155, 156, 157, 158, 159, 160, 
161, 162, 163, 164, 165, 166, 167, 168, 169, 170, 171, 172, 173, 174, 175, 176, 177, 178, 179, 180, 181, 182, 183, 184, 185, 186, 187, 188, 189, 190, 191, 192, 193, 194, 195, 196, 197, 198, 199, 200, 
201, 202, 203, 204, 205, 206, 207, 208, 209, 210, 211, 212, 213, 214, 215, 216, 217, 218, 219, 220, 221, 222, 223, 224, 225, 226, 227, 228, 229, 230, 231, 232, 233, 234, 235, 236, 237, 238, 239, 240, 
241, 242, 243, 244, 245, 246, 247, 248, 249, 250, 251, 252, 253, 254, 255, 256, 257, 258, 259, 260, 261, 262, 263, 264, 265, 266, 267, 268};

Physical Surface(MATRIX) = {1};
