// Gmsh 2D geometry specification

// Density of mesh near Points
lcf = 4.532276e-01;

// Geometrical entities = 1d and 2D regions indices
// #2D_REGIONS
MATRIX = 666;

// #1D_REGIONS
OPEN_FRACTURES = 777;

// Points
Point(2) = {1.303200e+02, 6.832000e+01, 0, lcf};
Point(3) = {1.299700e+02, 6.983000e+01, 0, lcf};
Point(4) = {1.303000e+02, 6.949000e+01, 0, lcf};
Point(5) = {1.306300e+02, 6.915000e+01, 0, lcf};
Point(6) = {1.309400e+02, 6.880000e+01, 0, lcf};
Point(7) = {1.312600e+02, 6.845000e+01, 0, lcf};
Point(8) = {1.316900e+02, 6.830000e+01, 0, lcf};
Point(9) = {1.321100e+02, 6.815000e+01, 0, lcf};
Point(10) = {1.324100e+02, 6.847000e+01, 0, lcf};
Point(11) = {1.327000e+02, 6.878000e+01, 0, lcf};
Point(12) = {1.327000e+02, 6.925000e+01, 0, lcf};
Point(13) = {1.325400e+02, 6.834000e+01, 0, lcf};
Point(14) = {1.329700e+02, 6.822000e+01, 0, lcf};
Point(15) = {1.334000e+02, 6.810000e+01, 0, lcf};
Point(16) = {1.338500e+02, 6.802000e+01, 0, lcf};
Point(17) = {1.343100e+02, 6.794000e+01, 0, lcf};
Point(18) = {1.347600e+02, 6.803000e+01, 0, lcf};
Point(19) = {1.352000e+02, 6.811000e+01, 0, lcf};
Point(20) = {1.356600e+02, 6.816000e+01, 0, lcf};
Point(21) = {1.361200e+02, 6.821000e+01, 0, lcf};
Point(22) = {1.365600e+02, 6.808000e+01, 0, lcf};
Point(23) = {1.328700e+02, 6.785000e+01, 0, lcf};
Point(24) = {1.331700e+02, 6.739000e+01, 0, lcf};
Point(25) = {1.335300e+02, 6.697000e+01, 0, lcf};
Point(26) = {1.300500e+02, 6.823000e+01, 0, lcf};
Point(27) = {1.300100e+02, 6.772000e+01, 0, lcf};
Point(29) = {1.307300e+02, 6.953000e+01, 0, lcf};
Point(30) = {1.308000e+02, 6.903000e+01, 0, lcf};
Point(31) = {1.308100e+02, 6.852000e+01, 0, lcf};
Point(32) = {1.308300e+02, 6.801000e+01, 0, lcf};
Point(33) = {1.308900e+02, 6.751000e+01, 0, lcf};
Point(34) = {1.309500e+02, 6.701000e+01, 0, lcf};
Point(35) = {1.311300e+02, 6.653000e+01, 0, lcf};
Point(36) = {1.313100e+02, 6.606000e+01, 0, lcf};
Point(37) = {1.314200e+02, 6.557000e+01, 0, lcf};
Point(38) = {1.315400e+02, 6.508000e+01, 0, lcf};
Point(39) = {1.316600e+02, 6.459000e+01, 0, lcf};
Point(40) = {1.317700e+02, 6.410000e+01, 0, lcf};
Point(41) = {1.319100e+02, 6.361000e+01, 0, lcf};
Point(42) = {1.320500e+02, 6.312000e+01, 0, lcf};
Point(43) = {1.321700e+02, 6.263000e+01, 0, lcf};
Point(44) = {1.322800e+02, 6.214000e+01, 0, lcf};
Point(45) = {1.324500e+02, 6.166000e+01, 0, lcf};
Point(46) = {1.326100e+02, 6.118000e+01, 0, lcf};
Point(47) = {1.328100e+02, 6.071000e+01, 0, lcf};
Point(48) = {1.319100e+02, 6.811000e+01, 0, lcf};
Point(49) = {1.318300e+02, 6.764000e+01, 0, lcf};
Point(50) = {1.317500e+02, 6.716000e+01, 0, lcf};
Point(51) = {1.316700e+02, 6.669000e+01, 0, lcf};
Point(52) = {1.315900e+02, 6.621000e+01, 0, lcf};
Point(53) = {1.315100e+02, 6.574000e+01, 0, lcf};
Point(54) = {1.314200e+02, 6.527000e+01, 0, lcf};
Point(55) = {1.312800e+02, 6.481000e+01, 0, lcf};
Point(56) = {1.311300e+02, 6.435000e+01, 0, lcf};
Point(57) = {1.309700e+02, 6.390000e+01, 0, lcf};
Point(58) = {1.308100e+02, 6.344000e+01, 0, lcf};
Point(59) = {1.306100e+02, 6.300000e+01, 0, lcf};
Point(60) = {1.304200e+02, 6.256000e+01, 0, lcf};
Point(61) = {1.302900e+02, 6.210000e+01, 0, lcf};
Point(62) = {1.301500e+02, 6.164000e+01, 0, lcf};
Point(63) = {1.300900e+02, 6.116000e+01, 0, lcf};
Point(64) = {1.333700e+02, 6.687000e+01, 0, lcf};
Point(65) = {1.334200e+02, 6.640000e+01, 0, lcf};
Point(66) = {1.334700e+02, 6.593000e+01, 0, lcf};
Point(67) = {1.335000e+02, 6.546000e+01, 0, lcf};
Point(68) = {1.335200e+02, 6.498000e+01, 0, lcf};
Point(69) = {1.336200e+02, 6.452000e+01, 0, lcf};
Point(71) = {1.304700e+02, 6.036000e+01, 0, lcf};
Point(72) = {1.308300e+02, 6.071000e+01, 0, lcf};
Point(73) = {1.312100e+02, 6.104000e+01, 0, lcf};
Point(74) = {1.315800e+02, 6.137000e+01, 0, lcf};
Point(75) = {1.319600e+02, 6.170000e+01, 0, lcf};
Point(76) = {1.323400e+02, 6.202000e+01, 0, lcf};
Point(77) = {1.326600e+02, 6.241000e+01, 0, lcf};
Point(78) = {1.329800e+02, 6.279000e+01, 0, lcf};
Point(79) = {1.332400e+02, 6.322000e+01, 0, lcf};
Point(80) = {1.334900e+02, 6.366000e+01, 0, lcf};
Point(81) = {1.337100e+02, 6.410000e+01, 0, lcf};
Point(82) = {1.339400e+02, 6.455000e+01, 0, lcf};
Point(83) = {1.342600e+02, 6.491000e+01, 0, lcf};
Point(84) = {1.345800e+02, 6.528000e+01, 0, lcf};
Point(85) = {1.349600e+02, 6.559000e+01, 0, lcf};
Point(86) = {1.353500e+02, 6.591000e+01, 0, lcf};
Point(87) = {1.356100e+02, 6.633000e+01, 0, lcf};
Point(88) = {1.358800e+02, 6.675000e+01, 0, lcf};
Point(89) = {1.361900e+02, 6.714000e+01, 0, lcf};
Point(90) = {1.365100e+02, 6.752000e+01, 0, lcf};
Point(91) = {1.368900e+02, 6.784000e+01, 0, lcf};
Point(92) = {1.372800e+02, 6.816000e+01, 0, lcf};
Point(93) = {1.376700e+02, 6.847000e+01, 0, lcf};
Point(94) = {1.380600e+02, 6.878000e+01, 0, lcf};
Point(95) = {1.383900e+02, 6.916000e+01, 0, lcf};
Point(96) = {1.332500e+02, 6.014000e+01, 0, lcf};
Point(97) = {1.334500e+02, 6.058000e+01, 0, lcf};
Point(98) = {1.336400e+02, 6.103000e+01, 0, lcf};
Point(99) = {1.339300e+02, 6.143000e+01, 0, lcf};
Point(100) = {1.342200e+02, 6.183000e+01, 0, lcf};
Point(101) = {1.344100e+02, 6.228000e+01, 0, lcf};
Point(102) = {1.345900e+02, 6.274000e+01, 0, lcf};
Point(103) = {1.347400e+02, 6.321000e+01, 0, lcf};
Point(104) = {1.348800e+02, 6.368000e+01, 0, lcf};
Point(105) = {1.349600e+02, 6.416000e+01, 0, lcf};
Point(106) = {1.350500e+02, 6.464000e+01, 0, lcf};
Point(107) = {1.351300e+02, 6.513000e+01, 0, lcf};
Point(108) = {1.352100e+02, 6.562000e+01, 0, lcf};
Point(109) = {1.353600e+02, 6.608000e+01, 0, lcf};
Point(110) = {1.356500e+02, 6.649000e+01, 0, lcf};
Point(111) = {1.361200e+02, 6.667000e+01, 0, lcf};
Point(112) = {1.365900e+02, 6.686000e+01, 0, lcf};
Point(113) = {1.370200e+02, 6.715000e+01, 0, lcf};
Point(114) = {1.374500e+02, 6.744000e+01, 0, lcf};
Point(115) = {1.379200e+02, 6.765000e+01, 0, lcf};
Point(116) = {1.383800e+02, 6.786000e+01, 0, lcf};
Point(117) = {1.388600e+02, 6.806000e+01, 0, lcf};
Point(118) = {1.393400e+02, 6.825000e+01, 0, lcf};
Point(119) = {1.398400e+02, 6.834000e+01, 0, lcf};
Point(120) = {1.378200e+02, 6.773000e+01, 0, lcf};
Point(121) = {1.382100e+02, 6.745000e+01, 0, lcf};
Point(122) = {1.386000e+02, 6.717000e+01, 0, lcf};
Point(123) = {1.390800e+02, 6.705000e+01, 0, lcf};
Point(124) = {1.351600e+02, 6.539000e+01, 0, lcf};
Point(125) = {1.356100e+02, 6.521000e+01, 0, lcf};
Point(126) = {1.360500e+02, 6.503000e+01, 0, lcf};
Point(127) = {1.364800e+02, 6.482000e+01, 0, lcf};
Point(128) = {1.369100e+02, 6.461000e+01, 0, lcf};
Point(129) = {1.373200e+02, 6.437000e+01, 0, lcf};
Point(130) = {1.377400e+02, 6.413000e+01, 0, lcf};
Point(131) = {1.381200e+02, 6.384000e+01, 0, lcf};
Point(132) = {1.385000e+02, 6.355000e+01, 0, lcf};
Point(133) = {1.388800e+02, 6.325000e+01, 0, lcf};
Point(134) = {1.392500e+02, 6.296000e+01, 0, lcf};
Point(135) = {1.396100e+02, 6.264000e+01, 0, lcf};
Point(136) = {1.307900e+02, 6.842000e+01, 0, lcf};
Point(137) = {1.327100e+02, 6.972000e+01, 0, lcf};
Point(138) = {1.370000e+02, 6.796000e+01, 0, lcf};
Point(139) = {1.338900e+02, 6.655000e+01, 0, lcf};
Point(140) = {1.299600e+02, 6.722000e+01, 0, lcf};
Point(141) = {1.330100e+02, 6.025000e+01, 0, lcf};
Point(142) = {1.300300e+02, 6.069000e+01, 0, lcf};
Point(143) = {1.387100e+02, 6.954000e+01, 0, lcf};
Point(144) = {1.355100e+02, 6.655000e+01, 0, lcf};
Point(146) = {1.395600e+02, 6.694000e+01, 0, lcf};
Point(147) = {1.399600e+02, 6.232000e+01, 0, lcf};
Point(148) = {1.308014e+02, 6.895644e+01, 0, lcf};
Point(149) = {1.352880e+02, 6.585910e+01, 0, lcf};
Point(150) = {1.357334e+02, 6.652194e+01, 0, lcf};
Point(151) = {1.314522e+02, 6.543836e+01, 0, lcf};
// Boundary points
Point(1) = {1.298500e+02, 6.823000e+01, 0, lcf};
Point(28) = {1.306600e+02, 7.003000e+01, 0, lcf};
Point(70) = {1.301200e+02, 6.001000e+01, 0, lcf};
Point(145) = {1.403400e+02, 6.844000e+01, 0, lcf};
Point(152) = {1.298500e+02, 6.001000e+01, 0, lcf};
Point(153) = {1.403400e+02, 6.001000e+01, 0, lcf};
Point(154) = {1.403400e+02, 7.003000e+01, 0, lcf};
Point(155) = {1.298500e+02, 7.003000e+01, 0, lcf};

// Lines
Line(1) = {1, 2};
Line(2) = {3, 4};
Line(3) = {5, 148};
Line(4) = {148, 6};
Line(5) = {7, 8};
Line(6) = {9, 10};
Line(7) = {11, 12};
Line(8) = {13, 14};
Line(9) = {15, 16};
Line(10) = {17, 18};
Line(11) = {19, 20};
Line(12) = {21, 22};
Line(13) = {13, 23};
Line(14) = {24, 25};
Line(15) = {26, 27};
Line(16) = {28, 29};
Line(17) = {30, 148};
Line(18) = {148, 31};
Line(19) = {32, 33};
Line(20) = {34, 35};
Line(21) = {36, 37};
Line(22) = {38, 39};
Line(23) = {40, 41};
Line(24) = {42, 43};
Line(25) = {44, 76};
Line(26) = {76, 45};
Line(27) = {46, 47};
Line(28) = {48, 49};
Line(29) = {50, 51};
Line(30) = {52, 53};
Line(31) = {54, 55};
Line(32) = {56, 57};
Line(33) = {58, 59};
Line(34) = {60, 61};
Line(35) = {62, 63};
Line(36) = {64, 65};
Line(37) = {66, 67};
Line(38) = {68, 69};
Line(39) = {70, 71};
Line(40) = {72, 73};
Line(41) = {74, 75};
Line(42) = {76, 77};
Line(43) = {78, 79};
Line(44) = {80, 81};
Line(45) = {82, 83};
Line(46) = {84, 85};
Line(47) = {86, 87};
Line(48) = {88, 89};
Line(49) = {90, 91};
Line(50) = {92, 93};
Line(51) = {94, 95};
Line(52) = {96, 97};
Line(53) = {98, 99};
Line(54) = {100, 101};
Line(55) = {102, 103};
Line(56) = {104, 105};
Line(57) = {106, 107};
Line(58) = {108, 149};
Line(59) = {149, 109};
Line(60) = {110, 150};
Line(61) = {150, 111};
Line(62) = {112, 113};
Line(63) = {114, 115};
Line(64) = {116, 117};
Line(65) = {118, 119};
Line(66) = {120, 115};
Line(67) = {115, 121};
Line(68) = {122, 123};
Line(69) = {124, 125};
Line(70) = {126, 127};
Line(71) = {128, 129};
Line(72) = {130, 131};
Line(73) = {132, 133};
Line(74) = {134, 135};
Line(75) = {2, 136};
Line(76) = {4, 5};
Line(77) = {6, 7};
Line(78) = {8, 9};
Line(79) = {10, 11};
Line(80) = {12, 137};
Line(81) = {14, 15};
Line(82) = {16, 17};
Line(83) = {18, 19};
Line(84) = {20, 21};
Line(85) = {22, 138};
Line(86) = {23, 24};
Line(87) = {25, 139};
Line(88) = {27, 140};
Line(89) = {29, 30};
Line(90) = {31, 32};
Line(91) = {33, 34};
Line(92) = {35, 36};
Line(93) = {37, 151};
Line(94) = {151, 38};
Line(95) = {39, 40};
Line(96) = {41, 42};
Line(97) = {43, 44};
Line(98) = {45, 46};
Line(99) = {47, 141};
Line(100) = {49, 50};
Line(101) = {51, 52};
Line(102) = {53, 151};
Line(103) = {151, 54};
Line(104) = {55, 56};
Line(105) = {57, 58};
Line(106) = {59, 60};
Line(107) = {61, 62};
Line(108) = {63, 142};
Line(109) = {65, 66};
Line(110) = {67, 68};
Line(111) = {69, 81};
Line(112) = {71, 72};
Line(113) = {73, 74};
Line(114) = {75, 76};
Line(115) = {77, 78};
Line(116) = {79, 80};
Line(117) = {81, 82};
Line(118) = {83, 84};
Line(119) = {85, 149};
Line(120) = {149, 86};
Line(121) = {87, 150};
Line(122) = {150, 88};
Line(123) = {89, 90};
Line(124) = {91, 92};
Line(125) = {93, 94};
Line(126) = {95, 143};
Line(127) = {97, 98};
Line(128) = {99, 100};
Line(129) = {101, 102};
Line(130) = {103, 104};
Line(131) = {105, 106};
Line(132) = {107, 124};
Line(133) = {124, 108};
Line(134) = {109, 144};
Line(135) = {111, 112};
Line(136) = {113, 114};
Line(137) = {115, 116};
Line(138) = {117, 118};
Line(139) = {119, 145};
Line(140) = {121, 122};
Line(141) = {123, 146};
Line(142) = {125, 126};
Line(143) = {127, 128};
Line(144) = {129, 130};
Line(145) = {131, 132};
Line(146) = {133, 134};
Line(147) = {135, 147};
// Boundary lines
Line(148) = {152, 70};
Line(149) = {70, 153};
Line(150) = {153, 145};
Line(151) = {145, 154};
Line(152) = {154, 28};
Line(153) = {28, 155};
Line(154) = {155, 1};
Line(155) = {1, 152};

Line Loop(1) = {148, 149, 150, 151, 152, 153, 154, 155};
Plane Surface(1) = {1};

// Including fractures in triangulation
Line{1, 2, 3, 4, 5, 6, 7, 8, 9, 10, 11, 12, 13, 14, 15, 16, 17, 18, 19, 20, 21, 22, 23, 24, 25, 26, 27, 28, 29, 30, 31, 32, 33, 34, 35, 36, 37, 38, 39, 40, 
41, 42, 43, 44, 45, 46, 47, 48, 49, 50, 51, 52, 53, 54, 55, 56, 57, 58, 59, 60, 61, 62, 63, 64, 65, 66, 67, 68, 69, 70, 71, 72, 73, 74, 75, 76, 77, 78, 79, 80, 
81, 82, 83, 84, 85, 86, 87, 88, 89, 90, 91, 92, 93, 94, 95, 96, 97, 98, 99, 100, 101, 102, 103, 104, 105, 106, 107, 108, 109, 110, 111, 112, 113, 114, 115, 116, 117, 118, 119, 120, 
121, 122, 123, 124, 125, 126, 127, 128, 129, 130, 131, 132, 133, 134, 135, 136, 137, 138, 139, 140, 141, 142, 143, 144, 145, 146, 147} In Surface {1};

// Physical entities

Physical Line(OPEN_FRACTURES) = {1, 2, 3, 4, 5, 6, 7, 8, 9, 10, 11, 12, 13, 14, 15, 16, 17, 18, 19, 20, 21, 22, 23, 24, 25, 26, 27, 28, 29, 30, 31, 32, 33, 34, 35, 36, 37, 38, 39, 40, 
41, 42, 43, 44, 45, 46, 47, 48, 49, 50, 51, 52, 53, 54, 55, 56, 57, 58, 59, 60, 61, 62, 63, 64, 65, 66, 67, 68, 69, 70, 71, 72, 73, 74, 75, 76, 77, 78, 79, 80, 
81, 82, 83, 84, 85, 86, 87, 88, 89, 90, 91, 92, 93, 94, 95, 96, 97, 98, 99, 100, 101, 102, 103, 104, 105, 106, 107, 108, 109, 110, 111, 112, 113, 114, 115, 116, 117, 118, 119, 120, 
121, 122, 123, 124, 125, 126, 127, 128, 129, 130, 131, 132, 133, 134, 135, 136, 137, 138, 139, 140, 141, 142, 143, 144, 145, 146, 147};

Physical Surface(MATRIX) = {1};
