<?xml version="1.0" encoding="UTF-8" standalone="no"?>
<!-- Created with Inkscape (http://www.inkscape.org/) -->

<svg
   xmlns:dc="http://purl.org/dc/elements/1.1/"
   xmlns:cc="http://creativecommons.org/ns#"
   xmlns:rdf="http://www.w3.org/1999/02/22-rdf-syntax-ns#"
   xmlns:svg="http://www.w3.org/2000/svg"
   xmlns="http://www.w3.org/2000/svg"
   xmlns:xlink="http://www.w3.org/1999/xlink"
   xmlns:sodipodi="http://sodipodi.sourceforge.net/DTD/sodipodi-0.dtd"
   xmlns:inkscape="http://www.inkscape.org/namespaces/inkscape"
   id="svg2"
   sodipodi:version="0.32"
   inkscape:version="0.47 r22583"
   width="3490.9766"
   height="896.82056"
   version="1.0"
   sodipodi:docname="dumux_logo.svg"
   inkscape:output_extension="org.inkscape.output.svg.inkscape">
  <metadata
     id="metadata7">
    <rdf:RDF>
      <cc:Work
         rdf:about="">
        <dc:format>image/svg+xml</dc:format>
        <dc:type
           rdf:resource="http://purl.org/dc/dcmitype/StillImage" />
      </cc:Work>
      <cc:Work
         rdf:about="">
        <dc:format>image/svg+xml</dc:format>
        <dc:type
           rdf:resource="http://purl.org/dc/dcmitype/StillImage" />
      </cc:Work>
    </rdf:RDF>
  </metadata>
  <defs
     id="defs5">
    <linearGradient
       id="linearGradient2411">
      <stop
         style="stop-color:#0c73cf;stop-opacity:1;"
         offset="0"
         id="stop2413" />
      <stop
         id="stop2415"
         offset="0.42408466"
         style="stop-color:#0c73cf;stop-opacity:1;" />
      <stop
         style="stop-color:#e19417;stop-opacity:1;"
         offset="0.47644299"
         id="stop2417" />
      <stop
         style="stop-color:#e19417;stop-opacity:1;"
         offset="1"
         id="stop2419" />
    </linearGradient>
    <linearGradient
       id="linearGradient3296">
      <stop
         id="stop3298"
         offset="0"
         style="stop-color:#0c73cf;stop-opacity:1;" />
      <stop
         style="stop-color:#0c73cf;stop-opacity:1;"
         offset="0.35694847"
         id="stop3300" />
      <stop
         id="stop3302"
         offset="0.56327248"
         style="stop-color:#e19417;stop-opacity:1;" />
      <stop
         id="stop3304"
         offset="1"
         style="stop-color:#e19417;stop-opacity:1;" />
    </linearGradient>
    <linearGradient
       id="linearGradient3162">
      <stop
         style="stop-color:#0c73cf;stop-opacity:1;"
         offset="0"
         id="stop3164" />
      <stop
         id="stop3178"
         offset="0.45442525"
         style="stop-color:#0c73cf;stop-opacity:1;" />
      <stop
         style="stop-color:#e19417;stop-opacity:1;"
         offset="0.59238893"
         id="stop3180" />
      <stop
         style="stop-color:#e19417;stop-opacity:1;"
         offset="1"
         id="stop3166" />
    </linearGradient>
    <inkscape:perspective
       sodipodi:type="inkscape:persp3d"
       inkscape:vp_x="0 : 526.18109 : 1"
       inkscape:vp_y="0 : 1000 : 0"
       inkscape:vp_z="744.09448 : 526.18109 : 1"
       inkscape:persp3d-origin="372.04724 : 350.78739 : 1"
       id="perspective9" />
    <linearGradient
       inkscape:collect="always"
       xlink:href="#linearGradient3296"
       id="linearGradient3294"
       gradientUnits="userSpaceOnUse"
       x1="5268.959"
       y1="-716.64313"
       x2="1864.9796"
       y2="-716.64313"
       gradientTransform="translate(4.3092067,-34.473654)" />
    <filter
       inkscape:collect="always"
       id="filter3748"
       color-interpolation-filters="sRGB">
      <feGaussianBlur
         inkscape:collect="always"
         stdDeviation="20.697156"
         id="feGaussianBlur3750" />
    </filter>
    <filter
       inkscape:collect="always"
       id="filter3828"
       color-interpolation-filters="sRGB">
      <feGaussianBlur
         inkscape:collect="always"
         stdDeviation="3.9824842"
         id="feGaussianBlur3830" />
    </filter>
    <linearGradient
       inkscape:collect="always"
       xlink:href="#linearGradient2411"
       id="linearGradient3850"
       gradientUnits="userSpaceOnUse"
       gradientTransform="translate(4.3092067,-34.473654)"
       x1="5268.959"
       y1="-716.64313"
       x2="1864.9796"
       y2="-716.64313" />
  </defs>
  <sodipodi:namedview
     inkscape:window-height="963"
     inkscape:window-width="1890"
     inkscape:pageshadow="2"
     inkscape:pageopacity="1"
     guidetolerance="10.0"
     gridtolerance="10.0"
     objecttolerance="10.0"
     borderopacity="1.0"
     bordercolor="#666666"
     pagecolor="#ffffff"
     id="base"
     showgrid="false"
     inkscape:zoom="0.3281842"
     inkscape:cx="1241.3609"
     inkscape:cy="821.30805"
     inkscape:window-x="0"
     inkscape:window-y="207"
     inkscape:current-layer="svg2"
     showborder="true"
     showguides="true"
     inkscape:guide-bbox="true"
     inkscape:snap-center="false"
     inkscape:snap-intersection-line-segments="false"
     inkscape:object-nodes="false"
     borderlayer="true"
     inkscape:window-maximized="0">
    <inkscape:grid
       type="xygrid"
       id="grid3752"
       visible="true"
       enabled="true"
       empspacing="5"
       snapvisiblegridlinesonly="true" />
  </sodipodi:namedview>
  <g
     id="g3846"
     transform="translate(-1821.7956,1175.2919)"
     inkscape:export-filename="/temp/lauser/DUMUX/dune-mux/doc/logo/dumux-logo-hires-whitebg.png"
     inkscape:export-xdpi="39.75"
     inkscape:export-ydpi="39.75">
    <path
       id="path3532"
       d="m 2989.4375,-1125.5904 c -111.6497,15.1589 -213.9719,68.0924 -307.4063,128.65619 -104.311,76.26295 -172.0539,188.80108 -241.5249,295.1354 -74.195,107.39459 -151.3708,217.14012 -258.811,294.01646 -59.8824,40.00417 -135.2329,51.97094 -205.6604,40.6994 -34.4494,-2.88384 -73.7172,-8.14183 -104.5661,8.17999 7.6703,15.78456 27.5465,4.84757 40.771,7.57102 99.4371,9.93236 205.4125,7.54156 295.5674,-40.60482 107.8913,-59.66114 187.9129,-157.30812 257.5734,-256.80365 69.8815,-102.11609 120.6113,-220.05106 215.1741,-303.15555 72.5738,-64.19394 160.4827,-109.37684 252.5391,-138.44444 23.0386,17.5683 27.5328,48.8144 46.4896,69.7521 123.1087,200.54938 258.9671,396.66083 433.2662,556.49795 89.4744,76.48561 201.5417,134.25683 321.3367,135.93739 94.8598,0.70544 185.4652,-42.5887 255.3762,-104.6875 33.7263,-21.20831 78.6074,-12.99856 108.6804,10.91536 44.5445,28.13252 85.0901,70.03194 140.4264,74.37441 65.1636,5.9798 121.4612,-34.11685 183.0857,-47.14308 75.9093,-11.60755 140.2229,43.72856 214.2421,47.77486 59.6804,5.38849 117.5335,-13.98368 176.5877,-18.59021 43.1309,-4.94889 86.9717,-3.1267 129.3154,6.52277 102.5571,14.81998 209.4766,29.83187 310.9881,0.87471 6.2223,-1.58415 16.0736,-13.01865 5.6455,-15.59336 -23.7248,1.15743 -47.1279,6.31756 -70.9974,5.19008 -110.6717,2.53883 -219.1683,-30.24014 -329.8752,-24.75728 -70.7533,7.32101 -143.0994,31.50035 -213.8346,10.90947 -60.567,-17.87428 -120.7987,-50.44678 -185.8891,-40.10273 -61.2539,6.39776 -113.3405,53.51277 -176.8025,46.23722 -60.0082,-8.88881 -98.0154,-63.09742 -152.2286,-85.22799 -45.7648,-21.55162 -99.0969,-10.12062 -142.9739,10.47696 -41.9191,19.01885 -76.971,49.39335 -115.5109,73.88203 -31.9165,18.93433 -70.1012,26.67547 -106.7598,20.44914 -131.8918,-10.01673 -250.0107,-84.44893 -340.9118,-176.84861 -120.4119,-120.15935 -219.2013,-259.64112 -313.2961,-400.73925 -40.6828,-62.78465 -77.6245,-128.59884 -117.6975,-191.31014 -0.7716,-0.035 -1.546,-0.1149 -2.3189,-0.044 z"
       style="opacity:0.52610438;fill:#000000;fill-opacity:1;filter:url(#filter3748)" />
    <path
       id="path2388"
       d="m 2993.7467,-1155.7549 c -111.6497,15.1589 -213.9719,68.0924 -307.4063,128.6562 -104.311,76.263 -172.0539,188.80113 -241.5249,295.13545 -74.195,107.39459 -151.3708,217.14012 -258.811,294.01646 -59.8824,40.00417 -135.2329,51.97094 -205.6604,40.6994 -34.4494,-2.88384 -73.7172,-8.14183 -104.5661,8.17999 7.6703,15.78456 27.5465,4.84757 40.771,7.57102 99.4371,9.93236 205.4125,7.54156 295.5674,-40.60482 107.8913,-59.66114 187.9129,-157.30812 257.5734,-256.80365 69.8815,-102.11609 120.6113,-220.05106 215.1741,-303.15555 72.5738,-64.194 160.4827,-109.3769 252.5391,-138.4445 23.0386,17.5683 27.5328,48.8144 46.4896,69.7521 123.1087,200.54944 258.9671,396.66089 433.2662,556.49801 89.4744,76.48561 201.5417,134.25683 321.3367,135.93739 94.8598,0.70544 185.4652,-42.5887 255.3762,-104.6875 33.7263,-21.20831 78.6074,-12.99856 108.6804,10.91536 44.5445,28.13252 85.0901,70.03194 140.4264,74.37441 65.1636,5.9798 121.4612,-34.11685 183.0857,-47.14308 75.9093,-11.60755 140.2229,43.72856 214.2421,47.77486 59.6804,5.38849 117.5335,-13.98368 176.5877,-18.59021 43.1309,-4.94889 86.9717,-3.1267 129.3154,6.52277 102.5571,14.81998 209.4766,29.83187 310.9881,0.87471 6.2223,-1.58415 16.0736,-13.01865 5.6455,-15.59336 -23.7248,1.15743 -47.1279,6.31756 -70.9974,5.19008 -110.6717,2.53883 -219.1683,-30.24014 -329.8752,-24.75728 -70.7533,7.32101 -143.0994,31.50035 -213.8346,10.90947 -60.567,-17.87428 -120.7987,-50.44678 -185.8891,-40.10273 -61.2539,6.39776 -113.3405,53.51277 -176.8025,46.23722 -60.0082,-8.88881 -98.0154,-63.09742 -152.2286,-85.22799 -45.7648,-21.55162 -99.0969,-10.12062 -142.9739,10.47696 -41.9191,19.01885 -76.971,49.39335 -115.5109,73.88203 -31.9165,18.93433 -70.1012,26.67547 -106.7598,20.44914 -131.8918,-10.01673 -250.0107,-84.44893 -340.9118,-176.84861 -120.4119,-120.15935 -219.2013,-259.64112 -313.2961,-400.73925 -40.6828,-62.7847 -77.6245,-128.5989 -117.6975,-191.3102 -0.7716,-0.035 -1.546,-0.1149 -2.3189,-0.044 z"
       style="fill:url(#linearGradient3850);fill-opacity:1" />
  </g>
  <g
     id="g3832"
     transform="translate(-1460.4565,1010.5653)"
     inkscape:export-filename="/temp/lauser/DUMUX/dune-mux/doc/logo/dumux-logo-hires-whitebg.png"
     inkscape:export-xdpi="39.75"
     inkscape:export-ydpi="39.75">
    <g
       id="g3801">
      <path
         style="fill:#000000"
         d="m 3643.6875,-946.125 c 0,95.66667 0,191.33333 0,287 39.9426,-0.43144 80.0121,1.42181 119.8249,-2.42644 36.9993,-4.48106 76.1744,-18.43725 97.7717,-50.68979 21.7944,-32.66319 25.3271,-73.87829 22.3809,-112.07879 -2.9255,-35.12183 -15.9849,-72.02387 -45.7066,-93.21473 -35.6751,-25.51515 -81.4895,-28.43131 -123.9023,-28.50968 -23.4557,-0.14339 -46.9125,-0.0566 -70.3686,-0.0806 z m 39,31.8125 c 26.1757,0.70951 52.4764,-0.3304 78.5313,2.53125 28.0428,4.31212 57.1247,18.22824 69.7361,45.07199 13.3512,28.42221 14.4019,61.1329 10.7673,91.86679 -3.483,28.38788 -18.0301,57.15641 -44.6162,70.12281 -26.3317,13.94395 -56.7325,13.16308 -85.664,13.42014 -9.5848,0.12067 -19.1697,0.24135 -28.7545,0.36202 0,-74.45833 0,-148.91667 0,-223.375 z"
         id="path3761" />
      <path
         style="fill:#000000"
         d="m 4000.0366,-654.52631 c -20.6967,-2.98632 -39.4598,-16.58953 -48.015,-35.77932 -12.5874,-25.65872 -9.5008,-55.06313 -10.2597,-82.72933 -0.1311,-33.69405 -0.046,-67.38841 -0.086,-101.08259 10.9632,1.46506 27.7902,-2.95982 35.0101,2.26519 0.287,48.11107 -0.7588,96.26597 1.2105,144.3434 1.9505,18.38888 13.3578,37.96247 32.8202,41.51957 24.6918,6.24855 54.0464,-3.41721 66.497,-26.54595 9.2988,-14.98318 9.2283,-33.08987 8.9377,-50.09017 0.364,-37.16301 0.3924,-74.32813 0.6143,-111.49204 11.0782,1.1184 26.6311,-2.23788 34.9102,1.67969 0,71.10677 0,142.21354 0,213.32031 -11.0595,-1.26893 -27.1265,2.54813 -35.03,-1.92629 -0.6703,-8.47981 1.4762,-23.45613 -1.4754,-27.87346 -11.5398,14.57459 -25.8789,28.21724 -44.5793,32.48732 -13.1604,3.39725 -27.1347,4.0121 -40.555,1.90367 z"
         id="path3765" />
      <path
         style="fill:#000000"
         d="m 4589.0366,-654.52631 c -20.6967,-2.98637 -39.4599,-16.58946 -48.0151,-35.77933 -12.5873,-25.65876 -9.5005,-55.06313 -10.2597,-82.72932 -0.1312,-33.69405 -0.046,-67.38841 -0.086,-101.08259 10.9632,1.46506 27.7902,-2.95982 35.01,2.26519 0.2868,48.11107 -0.7588,96.26597 1.2106,144.3434 1.9505,18.38888 13.3577,37.96243 32.8202,41.51957 24.6917,6.24852 54.0464,-3.41721 66.497,-26.54594 9.2986,-14.98323 9.2281,-33.08989 8.9377,-50.09018 0.3641,-37.16301 0.3924,-74.32813 0.6143,-111.49204 11.0782,1.1184 26.6311,-2.23788 34.9102,1.67969 0,71.10677 0,142.21354 0,213.32031 -11.0595,-1.26894 -27.1265,2.54813 -35.0299,-1.92629 -0.6701,-8.47982 1.4764,-23.45609 -1.4755,-27.87346 -11.5399,14.57454 -25.8789,28.21724 -44.5794,32.48733 -13.1604,3.39724 -27.1347,4.01208 -40.5549,1.90366 z"
         id="path3763" />
      <path
         style="fill:#000000"
         d="m 4194.6763,-802.63263 c 0,-47.83836 0,-95.67672 0,-143.51508 19.3904,0.17671 38.7809,0.35345 58.1714,0.53022 24.3241,64.67363 48.4281,129.43106 73.0117,194.00638 25.0783,-64.4644 49.1262,-129.3279 73.6494,-194.00638 19.3891,-0.17677 38.7783,-0.35351 58.1675,-0.53022 0,95.67672 0,191.35344 0,287.03016 -12.6641,0 -25.3282,0 -37.9922,0 -0.1693,-83.54869 -0.3386,-167.09738 -0.5078,-250.64606 -24.5754,65.23023 -48.8852,130.56165 -73.7354,195.68756 -12.9735,-0.1805 -25.9469,-0.36101 -38.9204,-0.5415 -24.4479,-65.0563 -48.8959,-130.11251 -73.3442,-195.16864 -0.1693,83.55621 -0.3386,167.11242 -0.5078,250.66864 -12.6641,0 -25.3282,0 -37.9922,0 0,-47.83836 0,-95.67672 0,-143.51508 z"
         id="path3757" />
      <path
         style="fill:#000000"
         d="m 4813.3311,-910.57452 c -17.5559,-26.51433 -35.1117,-53.02865 -52.6675,-79.54297 7.9233,0.0114 15.8467,0.0228 23.77,0.0342 14.6224,21.29931 29.2448,42.59863 43.8672,63.89795 14.2918,-21.29057 28.5836,-42.58114 42.8755,-63.87171 7.9777,0.056 15.9554,0.11194 23.9331,0.16791 -17.9951,27.46566 -35.9903,54.93132 -53.9854,82.39697 19.5817,29.70535 39.1634,59.41069 58.7451,89.11603 -6.9663,0 -13.9326,0 -20.8989,0 -17.3919,-24.24628 -34.7838,-48.49255 -52.1758,-72.73883 -16.3899,24.24628 -32.7799,48.49255 -49.1699,72.73883 -7.652,0 -15.304,0 -22.956,0 19.3252,-30.87872 38.9976,-61.53579 58.6626,-92.19842 z"
         id="path2386"
         sodipodi:nodetypes="ccccccccccccc" />
    </g>
    <g
       transform="translate(4.5706039,5.94392)"
       style="opacity:0.38955826;filter:url(#filter3828)"
       id="g3808">
      <path
         style="fill:#000000"
         d="m 3643.6875,-946.125 c 0,95.66667 0,191.33333 0,287 39.9426,-0.43144 80.0121,1.42181 119.8249,-2.42644 36.9993,-4.48106 76.1744,-18.43725 97.7717,-50.68979 21.7944,-32.66319 25.3271,-73.87829 22.3809,-112.07879 -2.9255,-35.12183 -15.9849,-72.02387 -45.7066,-93.21473 -35.6751,-25.51515 -81.4895,-28.43131 -123.9023,-28.50968 -23.4557,-0.14339 -46.9125,-0.0566 -70.3686,-0.0806 z m 39,31.8125 c 26.1757,0.70951 52.4764,-0.3304 78.5313,2.53125 28.0428,4.31212 57.1247,18.22824 69.7361,45.07199 13.3512,28.42221 14.4019,61.1329 10.7673,91.86679 -3.483,28.38788 -18.0301,57.15641 -44.6162,70.12281 -26.3317,13.94395 -56.7325,13.16308 -85.664,13.42014 -9.5848,0.12067 -19.1697,0.24135 -28.7545,0.36202 0,-74.45833 0,-148.91667 0,-223.375 z"
         id="path3810" />
      <path
         style="fill:#000000"
         d="m 4000.0366,-654.52631 c -20.6967,-2.98632 -39.4598,-16.58953 -48.015,-35.77932 -12.5874,-25.65872 -9.5008,-55.06313 -10.2597,-82.72933 -0.1311,-33.69405 -0.046,-67.38841 -0.086,-101.08259 10.9632,1.46506 27.7902,-2.95982 35.0101,2.26519 0.287,48.11107 -0.7588,96.26597 1.2105,144.3434 1.9505,18.38888 13.3578,37.96247 32.8202,41.51957 24.6918,6.24855 54.0464,-3.41721 66.497,-26.54595 9.2988,-14.98318 9.2283,-33.08987 8.9377,-50.09017 0.364,-37.16301 0.3924,-74.32813 0.6143,-111.49204 11.0782,1.1184 26.6311,-2.23788 34.9102,1.67969 0,71.10677 0,142.21354 0,213.32031 -11.0595,-1.26893 -27.1265,2.54813 -35.03,-1.92629 -0.6703,-8.47981 1.4762,-23.45613 -1.4754,-27.87346 -11.5398,14.57459 -25.8789,28.21724 -44.5793,32.48732 -13.1604,3.39725 -27.1347,4.0121 -40.555,1.90367 z"
         id="path3812" />
      <path
         style="fill:#000000"
         d="m 4589.0366,-654.52631 c -20.6967,-2.98637 -39.4599,-16.58946 -48.0151,-35.77933 -12.5873,-25.65876 -9.5005,-55.06313 -10.2597,-82.72932 -0.1312,-33.69405 -0.046,-67.38841 -0.086,-101.08259 10.9632,1.46506 27.7902,-2.95982 35.01,2.26519 0.2868,48.11107 -0.7588,96.26597 1.2106,144.3434 1.9505,18.38888 13.3577,37.96243 32.8202,41.51957 24.6917,6.24852 54.0464,-3.41721 66.497,-26.54594 9.2986,-14.98323 9.2281,-33.08989 8.9377,-50.09018 0.3641,-37.16301 0.3924,-74.32813 0.6143,-111.49204 11.0782,1.1184 26.6311,-2.23788 34.9102,1.67969 0,71.10677 0,142.21354 0,213.32031 -11.0595,-1.26894 -27.1265,2.54813 -35.0299,-1.92629 -0.6701,-8.47982 1.4764,-23.45609 -1.4755,-27.87346 -11.5399,14.57454 -25.8789,28.21724 -44.5794,32.48733 -13.1604,3.39724 -27.1347,4.01208 -40.5549,1.90366 z"
         id="path3814" />
      <path
         style="fill:#000000"
         d="m 4194.6763,-802.63263 c 0,-47.83836 0,-95.67672 0,-143.51508 19.3904,0.17671 38.7809,0.35345 58.1714,0.53022 24.3241,64.67363 48.4281,129.43106 73.0117,194.00638 25.0783,-64.4644 49.1262,-129.3279 73.6494,-194.00638 19.3891,-0.17677 38.7783,-0.35351 58.1675,-0.53022 0,95.67672 0,191.35344 0,287.03016 -12.6641,0 -25.3282,0 -37.9922,0 -0.1693,-83.54869 -0.3386,-167.09738 -0.5078,-250.64606 -24.5754,65.23023 -48.8852,130.56165 -73.7354,195.68756 -12.9735,-0.1805 -25.9469,-0.36101 -38.9204,-0.5415 -24.4479,-65.0563 -48.8959,-130.11251 -73.3442,-195.16864 -0.1693,83.55621 -0.3386,167.11242 -0.5078,250.66864 -12.6641,0 -25.3282,0 -37.9922,0 0,-47.83836 0,-95.67672 0,-143.51508 z"
         id="path3816" />
      <path
         style="fill:#000000"
         d="m 4813.3311,-910.57452 c -17.5559,-26.51433 -35.1117,-53.02865 -52.6675,-79.54297 7.9233,0.0114 15.8467,0.0228 23.77,0.0342 14.6224,21.29931 29.2448,42.59863 43.8672,63.89795 14.2918,-21.29057 28.5836,-42.58114 42.8755,-63.87171 7.9777,0.056 15.9554,0.11194 23.9331,0.16791 -17.9951,27.46566 -35.9903,54.93132 -53.9854,82.39697 19.5817,29.70535 39.1634,59.41069 58.7451,89.11603 -6.9663,0 -13.9326,0 -20.8989,0 -17.3919,-24.24628 -34.7838,-48.49255 -52.1758,-72.73883 -16.3899,24.24628 -32.7799,48.49255 -49.1699,72.73883 -7.652,0 -15.304,0 -22.956,0 19.3252,-30.87872 38.9976,-61.53579 58.6626,-92.19842 z"
         id="path3818"
         sodipodi:nodetypes="ccccccccccccc" />
    </g>
  </g>
</svg>
