// Gmsh 2D geometry specification

// Density of mesh near Points
lcf = 3.738347e-01;

// Geometrical entities = 1d and 2D regions indices
// #2D_REGIONS
MATRIX = 666;

// #1D_REGIONS
OPEN_FRACTURES = 777;

// Points
Point(1) = {3.992000e+01, 6.442000e+01, 0, lcf};
Point(2) = {3.961000e+01, 6.403500e+01, 0, lcf};
Point(3) = {3.930000e+01, 6.365000e+01, 0, lcf};
Point(4) = {3.900500e+01, 6.324500e+01, 0, lcf};
Point(5) = {3.871000e+01, 6.284000e+01, 0, lcf};
Point(6) = {3.841000e+01, 6.244000e+01, 0, lcf};
Point(7) = {3.811000e+01, 6.204000e+01, 0, lcf};
Point(8) = {3.781500e+01, 6.163500e+01, 0, lcf};
Point(9) = {3.752000e+01, 6.123000e+01, 0, lcf};
Point(10) = {3.724500e+01, 6.081500e+01, 0, lcf};
Point(11) = {3.697000e+01, 6.040000e+01, 0, lcf};
Point(12) = {3.671500e+01, 5.997000e+01, 0, lcf};
Point(13) = {3.646000e+01, 5.954000e+01, 0, lcf};
Point(14) = {3.619500e+01, 5.912000e+01, 0, lcf};
Point(15) = {3.593000e+01, 5.870000e+01, 0, lcf};
Point(16) = {3.571000e+01, 5.825000e+01, 0, lcf};
Point(17) = {3.549000e+01, 5.780000e+01, 0, lcf};
Point(18) = {3.527000e+01, 5.735000e+01, 0, lcf};
Point(19) = {3.505000e+01, 5.690000e+01, 0, lcf};
Point(20) = {4.475000e+01, 6.466000e+01, 0, lcf};
Point(21) = {4.475500e+01, 6.413500e+01, 0, lcf};
Point(22) = {4.476000e+01, 6.361000e+01, 0, lcf};
Point(23) = {4.473500e+01, 6.308500e+01, 0, lcf};
Point(24) = {4.471000e+01, 6.256000e+01, 0, lcf};
Point(25) = {4.466500e+01, 6.203500e+01, 0, lcf};
Point(26) = {4.462000e+01, 6.151000e+01, 0, lcf};
Point(27) = {4.457500e+01, 6.098500e+01, 0, lcf};
Point(28) = {4.453000e+01, 6.046000e+01, 0, lcf};
Point(29) = {4.449500e+01, 5.993500e+01, 0, lcf};
Point(30) = {4.446000e+01, 5.941000e+01, 0, lcf};
Point(31) = {3.650000e+01, 6.421000e+01, 0, lcf};
Point(32) = {3.686500e+01, 6.454500e+01, 0, lcf};
Point(33) = {3.723000e+01, 6.488000e+01, 0, lcf};
Point(34) = {3.508000e+01, 6.062000e+01, 0, lcf};
Point(35) = {3.534000e+01, 6.021000e+01, 0, lcf};
Point(36) = {3.560000e+01, 5.980000e+01, 0, lcf};
Point(37) = {3.581500e+01, 5.935500e+01, 0, lcf};
Point(38) = {3.603000e+01, 5.891000e+01, 0, lcf};
Point(39) = {3.515000e+01, 5.934000e+01, 0, lcf};
Point(40) = {3.556500e+01, 5.907000e+01, 0, lcf};
Point(41) = {3.598000e+01, 5.880000e+01, 0, lcf};
Point(42) = {4.153000e+01, 6.196000e+01, 0, lcf};
Point(43) = {4.202500e+01, 6.187000e+01, 0, lcf};
Point(44) = {4.252000e+01, 6.178000e+01, 0, lcf};
Point(45) = {4.300500e+01, 6.168500e+01, 0, lcf};
Point(46) = {4.349000e+01, 6.159000e+01, 0, lcf};
Point(47) = {4.391500e+01, 6.132500e+01, 0, lcf};
Point(48) = {4.434000e+01, 6.106000e+01, 0, lcf};
Point(49) = {4.467000e+01, 6.290000e+01, 0, lcf};
Point(50) = {4.427500e+01, 6.258000e+01, 0, lcf};
Point(51) = {4.388000e+01, 6.226000e+01, 0, lcf};
Point(52) = {4.349000e+01, 6.193500e+01, 0, lcf};
Point(53) = {4.310000e+01, 6.161000e+01, 0, lcf};
Point(54) = {4.266500e+01, 6.135000e+01, 0, lcf};
Point(55) = {4.223000e+01, 6.109000e+01, 0, lcf};
Point(56) = {4.183500e+01, 6.078000e+01, 0, lcf};
Point(57) = {4.144000e+01, 6.047000e+01, 0, lcf};
Point(58) = {4.095000e+01, 6.035500e+01, 0, lcf};
Point(59) = {4.046000e+01, 6.024000e+01, 0, lcf};
Point(60) = {4.400000e+01, 6.143000e+01, 0, lcf};
Point(61) = {4.379500e+01, 6.101000e+01, 0, lcf};
Point(62) = {4.359000e+01, 6.059000e+01, 0, lcf};
Point(63) = {4.344000e+01, 6.014500e+01, 0, lcf};
Point(64) = {4.329000e+01, 5.970000e+01, 0, lcf};
Point(65) = {4.318500e+01, 5.924500e+01, 0, lcf};
Point(66) = {4.308000e+01, 5.879000e+01, 0, lcf};
Point(67) = {4.309500e+01, 5.832500e+01, 0, lcf};
Point(68) = {4.311000e+01, 5.786000e+01, 0, lcf};
Point(69) = {4.304000e+01, 5.739500e+01, 0, lcf};
Point(70) = {4.297000e+01, 5.693000e+01, 0, lcf};
Point(71) = {4.289000e+01, 5.647500e+01, 0, lcf};
Point(72) = {4.281000e+01, 5.602000e+01, 0, lcf};
Point(73) = {4.282500e+01, 5.555000e+01, 0, lcf};
Point(74) = {4.284000e+01, 5.508000e+01, 0, lcf};
Point(75) = {4.017000e+01, 5.917000e+01, 0, lcf};
Point(76) = {4.032000e+01, 5.871500e+01, 0, lcf};
Point(77) = {4.047000e+01, 5.826000e+01, 0, lcf};
Point(78) = {4.074000e+01, 5.786500e+01, 0, lcf};
Point(79) = {4.101000e+01, 5.747000e+01, 0, lcf};
Point(80) = {4.130000e+01, 5.709000e+01, 0, lcf};
Point(81) = {4.159000e+01, 5.671000e+01, 0, lcf};
Point(82) = {4.188500e+01, 5.633000e+01, 0, lcf};
Point(83) = {4.218000e+01, 5.595000e+01, 0, lcf};
Point(84) = {4.251500e+01, 5.560500e+01, 0, lcf};
Point(85) = {4.285000e+01, 5.526000e+01, 0, lcf};
Point(86) = {4.346000e+01, 6.030000e+01, 0, lcf};
Point(87) = {4.306000e+01, 5.990500e+01, 0, lcf};
Point(88) = {4.266000e+01, 5.951000e+01, 0, lcf};
Point(89) = {4.232500e+01, 5.906000e+01, 0, lcf};
Point(90) = {4.199000e+01, 5.861000e+01, 0, lcf};
Point(91) = {4.181000e+01, 5.807500e+01, 0, lcf};
Point(92) = {4.163000e+01, 5.754000e+01, 0, lcf};
Point(93) = {3.959000e+01, 6.180000e+01, 0, lcf};
Point(94) = {3.985500e+01, 6.136000e+01, 0, lcf};
Point(95) = {4.012000e+01, 6.092000e+01, 0, lcf};
Point(96) = {4.040000e+01, 6.049000e+01, 0, lcf};
Point(97) = {4.068000e+01, 6.006000e+01, 0, lcf};
Point(98) = {4.090500e+01, 5.960500e+01, 0, lcf};
Point(99) = {4.113000e+01, 5.915000e+01, 0, lcf};
Point(100) = {4.130500e+01, 5.867000e+01, 0, lcf};
Point(101) = {4.148000e+01, 5.819000e+01, 0, lcf};
Point(102) = {4.162500e+01, 5.770000e+01, 0, lcf};
Point(103) = {4.177000e+01, 5.721000e+01, 0, lcf};
Point(104) = {4.187000e+01, 5.670500e+01, 0, lcf};
Point(105) = {4.197000e+01, 5.620000e+01, 0, lcf};
Point(106) = {4.207000e+01, 5.570000e+01, 0, lcf};
Point(107) = {4.217000e+01, 5.520000e+01, 0, lcf};
Point(108) = {4.016000e+01, 5.923000e+01, 0, lcf};
Point(109) = {4.006500e+01, 5.877000e+01, 0, lcf};
Point(110) = {3.997000e+01, 5.831000e+01, 0, lcf};
Point(111) = {3.985500e+01, 5.786000e+01, 0, lcf};
Point(112) = {3.974000e+01, 5.741000e+01, 0, lcf};
Point(113) = {3.964000e+01, 5.695000e+01, 0, lcf};
Point(114) = {3.954000e+01, 5.649000e+01, 0, lcf};
Point(115) = {3.951000e+01, 5.602500e+01, 0, lcf};
Point(116) = {3.948000e+01, 5.556000e+01, 0, lcf};
Point(117) = {3.977000e+01, 5.761000e+01, 0, lcf};
Point(118) = {3.985500e+01, 5.707500e+01, 0, lcf};
Point(119) = {3.994000e+01, 5.654000e+01, 0, lcf};
Point(120) = {3.997000e+01, 5.599500e+01, 0, lcf};
Point(121) = {4.000000e+01, 5.545000e+01, 0, lcf};
Point(122) = {4.043000e+01, 6.003000e+01, 0, lcf};
Point(123) = {4.018000e+01, 5.961500e+01, 0, lcf};
Point(124) = {3.993000e+01, 5.920000e+01, 0, lcf};
Point(125) = {3.968500e+01, 5.878500e+01, 0, lcf};
Point(126) = {3.944000e+01, 5.837000e+01, 0, lcf};
Point(127) = {3.979000e+01, 5.838000e+01, 0, lcf};
Point(128) = {3.940000e+01, 5.814000e+01, 0, lcf};
Point(129) = {3.901000e+01, 5.790000e+01, 0, lcf};
Point(130) = {3.883500e+01, 5.743500e+01, 0, lcf};
Point(131) = {3.866000e+01, 5.697000e+01, 0, lcf};
Point(132) = {3.848000e+01, 5.651000e+01, 0, lcf};
Point(133) = {3.830000e+01, 5.605000e+01, 0, lcf};
Point(134) = {3.813500e+01, 5.557500e+01, 0, lcf};
Point(135) = {3.797000e+01, 5.510000e+01, 0, lcf};
Point(136) = {3.752000e+01, 6.130000e+01, 0, lcf};
Point(137) = {3.743500e+01, 6.080500e+01, 0, lcf};
Point(138) = {3.735000e+01, 6.031000e+01, 0, lcf};
Point(139) = {3.731500e+01, 5.981000e+01, 0, lcf};
Point(140) = {3.728000e+01, 5.931000e+01, 0, lcf};
Point(141) = {3.733000e+01, 5.880500e+01, 0, lcf};
Point(142) = {3.738000e+01, 5.830000e+01, 0, lcf};
Point(143) = {3.737500e+01, 5.780000e+01, 0, lcf};
Point(144) = {3.737000e+01, 5.730000e+01, 0, lcf};
Point(145) = {3.735500e+01, 5.679500e+01, 0, lcf};
Point(146) = {3.734000e+01, 5.629000e+01, 0, lcf};
Point(147) = {3.737000e+01, 5.579000e+01, 0, lcf};
Point(148) = {3.740000e+01, 5.529000e+01, 0, lcf};
Point(149) = {3.752000e+01, 6.133000e+01, 0, lcf};
Point(150) = {3.759500e+01, 6.078000e+01, 0, lcf};
Point(151) = {3.767000e+01, 6.023000e+01, 0, lcf};
Point(152) = {3.781500e+01, 5.969500e+01, 0, lcf};
Point(153) = {3.796000e+01, 5.916000e+01, 0, lcf};
Point(154) = {3.660000e+01, 6.248000e+01, 0, lcf};
Point(155) = {3.669500e+01, 6.201000e+01, 0, lcf};
Point(156) = {3.679000e+01, 6.154000e+01, 0, lcf};
Point(157) = {3.692000e+01, 6.108000e+01, 0, lcf};
Point(158) = {3.705000e+01, 6.062000e+01, 0, lcf};
Point(159) = {3.723500e+01, 6.017500e+01, 0, lcf};
Point(160) = {3.742000e+01, 5.973000e+01, 0, lcf};
Point(161) = {3.775000e+01, 5.941000e+01, 0, lcf};
Point(162) = {3.808000e+01, 5.909000e+01, 0, lcf};
Point(163) = {3.844500e+01, 5.877000e+01, 0, lcf};
Point(164) = {3.881000e+01, 5.845000e+01, 0, lcf};
Point(165) = {3.919000e+01, 5.816000e+01, 0, lcf};
Point(166) = {3.957000e+01, 5.787000e+01, 0, lcf};
Point(167) = {3.633000e+01, 6.037000e+01, 0, lcf};
Point(168) = {3.624500e+01, 5.989000e+01, 0, lcf};
Point(169) = {3.616000e+01, 5.941000e+01, 0, lcf};
Point(170) = {3.616500e+01, 5.892000e+01, 0, lcf};
Point(171) = {3.617000e+01, 5.843000e+01, 0, lcf};
Point(172) = {3.616000e+01, 5.794000e+01, 0, lcf};
Point(173) = {3.615000e+01, 5.745000e+01, 0, lcf};
Point(174) = {3.622500e+01, 5.696500e+01, 0, lcf};
Point(175) = {3.630000e+01, 5.648000e+01, 0, lcf};
Point(176) = {3.633500e+01, 5.599000e+01, 0, lcf};
Point(177) = {3.637000e+01, 5.550000e+01, 0, lcf};
Point(178) = {4.312000e+01, 5.573000e+01, 0, lcf};
Point(179) = {4.330000e+01, 5.619500e+01, 0, lcf};
Point(180) = {4.348000e+01, 5.666000e+01, 0, lcf};
Point(181) = {4.364500e+01, 5.712500e+01, 0, lcf};
Point(182) = {4.381000e+01, 5.759000e+01, 0, lcf};
Point(183) = {4.399500e+01, 5.805000e+01, 0, lcf};
Point(184) = {4.418000e+01, 5.851000e+01, 0, lcf};
Point(185) = {4.429500e+01, 5.899500e+01, 0, lcf};
Point(186) = {4.441000e+01, 5.948000e+01, 0, lcf};
Point(187) = {4.458500e+01, 5.994000e+01, 0, lcf};
Point(188) = {4.476000e+01, 6.040000e+01, 0, lcf};
Point(189) = {4.300000e+01, 6.466000e+01, 0, lcf};
Point(190) = {4.274500e+01, 6.422500e+01, 0, lcf};
Point(191) = {4.249000e+01, 6.379000e+01, 0, lcf};
Point(192) = {4.222500e+01, 6.336000e+01, 0, lcf};
Point(193) = {4.196000e+01, 6.293000e+01, 0, lcf};
Point(194) = {4.174500e+01, 6.247500e+01, 0, lcf};
Point(195) = {4.153000e+01, 6.202000e+01, 0, lcf};
Point(196) = {4.126000e+01, 6.159500e+01, 0, lcf};
Point(197) = {4.099000e+01, 6.117000e+01, 0, lcf};
Point(198) = {4.075000e+01, 6.073000e+01, 0, lcf};
Point(199) = {4.051000e+01, 6.029000e+01, 0, lcf};
Point(200) = {4.035500e+01, 5.981000e+01, 0, lcf};
Point(201) = {4.020000e+01, 5.933000e+01, 0, lcf};
Point(202) = {4.001000e+01, 5.886500e+01, 0, lcf};
Point(203) = {3.982000e+01, 5.840000e+01, 0, lcf};
Point(204) = {3.961500e+01, 5.794000e+01, 0, lcf};
Point(205) = {3.941000e+01, 5.748000e+01, 0, lcf};
Point(206) = {3.919500e+01, 5.702500e+01, 0, lcf};
Point(207) = {3.898000e+01, 5.657000e+01, 0, lcf};
Point(208) = {3.879000e+01, 5.610000e+01, 0, lcf};
Point(209) = {3.860000e+01, 5.563000e+01, 0, lcf};
Point(210) = {3.502500e+01, 5.685319e+01, 0, lcf};
Point(213) = {3.504000e+01, 6.077833e+01, 0, lcf};
Point(215) = {3.507500e+01, 5.943762e+01, 0, lcf};
Point(217) = {3.526000e+01, 5.811571e+01, 0, lcf};
Point(218) = {3.552000e+01, 5.793000e+01, 0, lcf};
Point(219) = {4.292927e+01, 5.513000e+01, 0, lcf};
Point(221) = {4.219100e+01, 5.510000e+01, 0, lcf};
Point(223) = {3.952978e+01, 5.528000e+01, 0, lcf};
Point(225) = {4.006274e+01, 5.522500e+01, 0, lcf};
Point(227) = {3.794611e+01, 5.505000e+01, 0, lcf};
Point(229) = {3.742320e+01, 5.514500e+01, 0, lcf};
Point(231) = {3.638289e+01, 5.525000e+01, 0, lcf};
Point(233) = {3.845462e+01, 5.531500e+01, 0, lcf};
Point(236) = {4.295956e+01, 5.536500e+01, 0, lcf};
Point(237) = {4.467000e+01, 6.078571e+01, 0, lcf};
Point(239) = {4.488000e+01, 6.060000e+01, 0, lcf};
Point(242) = {4.483500e+01, 6.305822e+01, 0, lcf};
Point(243) = {3.732000e+01, 6.494000e+01, 0, lcf};
Point(246) = {4.022706e+01, 6.471000e+01, 0, lcf};
Point(248) = {4.474519e+01, 6.483000e+01, 0, lcf};
Point(250) = {3.831314e+01, 6.471000e+01, 0, lcf};
Point(251) = {3.828000e+01, 6.442000e+01, 0, lcf};
Point(253) = {4.307846e+01, 6.483000e+01, 0, lcf};
Point(254) = {3.753149e+01, 6.124577e+01, 0, lcf};
Point(255) = {3.750378e+01, 6.120552e+01, 0, lcf};
Point(256) = {3.707536e+01, 6.055900e+01, 0, lcf};
Point(257) = {3.616347e+01, 5.907003e+01, 0, lcf};
Point(258) = {4.472888e+01, 6.295646e+01, 0, lcf};
Point(259) = {4.456537e+01, 6.087268e+01, 0, lcf};
Point(260) = {4.447628e+01, 5.965423e+01, 0, lcf};
Point(261) = {4.315479e+01, 6.165566e+01, 0, lcf};
Point(262) = {4.394088e+01, 6.130887e+01, 0, lcf};
Point(263) = {4.054916e+01, 6.026093e+01, 0, lcf};
Point(264) = {4.049663e+01, 6.024860e+01, 0, lcf};
Point(265) = {4.283372e+01, 5.527677e+01, 0, lcf};
Point(266) = {4.283961e+01, 5.509212e+01, 0, lcf};
Point(267) = {4.196455e+01, 5.622753e+01, 0, lcf};
Point(268) = {4.165253e+01, 5.760697e+01, 0, lcf};
Point(269) = {4.051922e+01, 6.030691e+01, 0, lcf};
Point(270) = {3.977809e+01, 5.755906e+01, 0, lcf};
Point(271) = {4.042147e+01, 6.001584e+01, 0, lcf};
Point(272) = {3.929825e+01, 5.807739e+01, 0, lcf};
Point(273) = {3.732534e+01, 5.995770e+01, 0, lcf};
Point(274) = {3.794295e+01, 5.922289e+01, 0, lcf};
Point(275) = {4.288685e+01, 5.519957e+01, 0, lcf};
Point(276) = {4.488447e+01, 6.060745e+01, 0, lcf};
// Boundary points
Point(211) = {3.500000e+01, 5.680638e+01, 0, lcf};
Point(212) = {3.500000e+01, 6.093667e+01, 0, lcf};
Point(214) = {3.500000e+01, 5.953524e+01, 0, lcf};
Point(216) = {3.500000e+01, 5.830143e+01, 0, lcf};
Point(220) = {4.300854e+01, 5.500000e+01, 0, lcf};
Point(222) = {4.221200e+01, 5.500000e+01, 0, lcf};
Point(224) = {3.957956e+01, 5.500000e+01, 0, lcf};
Point(226) = {4.012548e+01, 5.500000e+01, 0, lcf};
Point(228) = {3.792222e+01, 5.500000e+01, 0, lcf};
Point(230) = {3.744640e+01, 5.500000e+01, 0, lcf};
Point(232) = {3.639577e+01, 5.500000e+01, 0, lcf};
Point(234) = {3.830923e+01, 5.500000e+01, 0, lcf};
Point(235) = {4.279912e+01, 5.500000e+01, 0, lcf};
Point(238) = {4.500000e+01, 6.051143e+01, 0, lcf};
Point(240) = {4.500000e+01, 6.080000e+01, 0, lcf};
Point(241) = {4.500000e+01, 6.321644e+01, 0, lcf};
Point(244) = {3.741000e+01, 6.500000e+01, 0, lcf};
Point(245) = {4.053412e+01, 6.500000e+01, 0, lcf};
Point(247) = {4.474038e+01, 6.500000e+01, 0, lcf};
Point(249) = {3.834629e+01, 6.500000e+01, 0, lcf};
Point(252) = {4.315692e+01, 6.500000e+01, 0, lcf};
// Corner points
Point(277) = {3.500000e+01, 5.500000e+01, 0, lcf};
Point(278) = {4.500000e+01, 5.500000e+01, 0, lcf};
Point(279) = {4.500000e+01, 6.500000e+01, 0, lcf};
Point(280) = {3.500000e+01, 6.500000e+01, 0, lcf};

// Lines
Line(1) = {1, 2};
Line(2) = {2, 3};
Line(3) = {3, 4};
Line(4) = {4, 5};
Line(5) = {5, 6};
Line(6) = {6, 7};
Line(7) = {7, 8};
Line(8) = {8, 254};
Line(9) = {254, 9};
Line(10) = {9, 255};
Line(11) = {255, 10};
Line(12) = {10, 256};
Line(13) = {256, 11};
Line(14) = {11, 12};
Line(15) = {12, 13};
Line(16) = {13, 14};
Line(17) = {14, 257};
Line(18) = {257, 15};
Line(19) = {15, 16};
Line(20) = {16, 17};
Line(21) = {17, 18};
Line(22) = {18, 19};
Line(23) = {20, 21};
Line(24) = {21, 22};
Line(25) = {22, 23};
Line(26) = {23, 258};
Line(27) = {258, 24};
Line(28) = {24, 25};
Line(29) = {25, 26};
Line(30) = {26, 27};
Line(31) = {27, 259};
Line(32) = {259, 28};
Line(33) = {28, 29};
Line(34) = {29, 260};
Line(35) = {260, 30};
Line(36) = {31, 32};
Line(37) = {32, 33};
Line(38) = {34, 35};
Line(39) = {35, 36};
Line(40) = {36, 37};
Line(41) = {37, 38};
Line(42) = {39, 40};
Line(43) = {40, 41};
Line(44) = {42, 43};
Line(45) = {43, 44};
Line(46) = {44, 45};
Line(47) = {45, 261};
Line(48) = {261, 46};
Line(49) = {46, 47};
Line(50) = {47, 262};
Line(51) = {262, 48};
Line(52) = {49, 50};
Line(53) = {50, 51};
Line(54) = {51, 52};
Line(55) = {52, 261};
Line(56) = {261, 53};
Line(57) = {53, 54};
Line(58) = {54, 55};
Line(59) = {55, 56};
Line(60) = {56, 57};
Line(61) = {57, 58};
Line(62) = {58, 263};
Line(63) = {263, 264};
Line(64) = {264, 59};
Line(65) = {60, 262};
Line(66) = {262, 61};
Line(67) = {61, 62};
Line(68) = {62, 63};
Line(69) = {63, 64};
Line(70) = {64, 65};
Line(71) = {65, 66};
Line(72) = {66, 67};
Line(73) = {67, 68};
Line(74) = {68, 69};
Line(75) = {69, 70};
Line(76) = {70, 71};
Line(77) = {71, 72};
Line(78) = {72, 73};
Line(79) = {73, 265};
Line(80) = {265, 266};
Line(81) = {266, 74};
Line(82) = {75, 76};
Line(83) = {76, 77};
Line(84) = {77, 78};
Line(85) = {78, 79};
Line(86) = {79, 80};
Line(87) = {80, 81};
Line(88) = {81, 82};
Line(89) = {82, 267};
Line(90) = {267, 83};
Line(91) = {83, 84};
Line(92) = {84, 265};
Line(93) = {265, 85};
Line(94) = {86, 87};
Line(95) = {87, 88};
Line(96) = {88, 89};
Line(97) = {89, 90};
Line(98) = {90, 91};
Line(99) = {91, 268};
Line(100) = {268, 92};
Line(101) = {93, 94};
Line(102) = {94, 95};
Line(103) = {95, 96};
Line(104) = {96, 269};
Line(105) = {269, 263};
Line(106) = {263, 97};
Line(107) = {97, 98};
Line(108) = {98, 99};
Line(109) = {99, 100};
Line(110) = {100, 101};
Line(111) = {101, 102};
Line(112) = {102, 268};
Line(113) = {268, 103};
Line(114) = {103, 104};
Line(115) = {104, 267};
Line(116) = {267, 105};
Line(117) = {105, 106};
Line(118) = {106, 107};
Line(119) = {108, 109};
Line(120) = {109, 110};
Line(121) = {110, 111};
Line(122) = {111, 270};
Line(123) = {270, 112};
Line(124) = {112, 113};
Line(125) = {113, 114};
Line(126) = {114, 115};
Line(127) = {115, 116};
Line(128) = {117, 270};
Line(129) = {270, 118};
Line(130) = {118, 119};
Line(131) = {119, 120};
Line(132) = {120, 121};
Line(133) = {122, 271};
Line(134) = {271, 123};
Line(135) = {123, 124};
Line(136) = {124, 125};
Line(137) = {125, 126};
Line(138) = {127, 128};
Line(139) = {128, 272};
Line(140) = {272, 129};
Line(141) = {129, 130};
Line(142) = {130, 131};
Line(143) = {131, 132};
Line(144) = {132, 133};
Line(145) = {133, 134};
Line(146) = {134, 135};
Line(147) = {136, 255};
Line(148) = {255, 137};
Line(149) = {137, 138};
Line(150) = {138, 273};
Line(151) = {273, 139};
Line(152) = {139, 140};
Line(153) = {140, 141};
Line(154) = {141, 142};
Line(155) = {142, 143};
Line(156) = {143, 144};
Line(157) = {144, 145};
Line(158) = {145, 146};
Line(159) = {146, 147};
Line(160) = {147, 148};
Line(161) = {149, 254};
Line(162) = {254, 150};
Line(163) = {150, 151};
Line(164) = {151, 152};
Line(165) = {152, 274};
Line(166) = {274, 153};
Line(167) = {154, 155};
Line(168) = {155, 156};
Line(169) = {156, 157};
Line(170) = {157, 158};
Line(171) = {158, 256};
Line(172) = {256, 159};
Line(173) = {159, 273};
Line(174) = {273, 160};
Line(175) = {160, 161};
Line(176) = {161, 274};
Line(177) = {274, 162};
Line(178) = {162, 163};
Line(179) = {163, 164};
Line(180) = {164, 165};
Line(181) = {165, 272};
Line(182) = {272, 166};
Line(183) = {167, 168};
Line(184) = {168, 169};
Line(185) = {169, 257};
Line(186) = {257, 170};
Line(187) = {170, 171};
Line(188) = {171, 172};
Line(189) = {172, 173};
Line(190) = {173, 174};
Line(191) = {174, 175};
Line(192) = {175, 176};
Line(193) = {176, 177};
Line(194) = {178, 179};
Line(195) = {179, 180};
Line(196) = {180, 181};
Line(197) = {181, 182};
Line(198) = {182, 183};
Line(199) = {183, 184};
Line(200) = {184, 185};
Line(201) = {185, 186};
Line(202) = {186, 260};
Line(203) = {260, 187};
Line(204) = {187, 188};
Line(205) = {189, 190};
Line(206) = {190, 191};
Line(207) = {191, 192};
Line(208) = {192, 193};
Line(209) = {193, 194};
Line(210) = {194, 195};
Line(211) = {195, 196};
Line(212) = {196, 197};
Line(213) = {197, 198};
Line(214) = {198, 269};
Line(215) = {269, 199};
Line(216) = {199, 264};
Line(217) = {264, 271};
Line(218) = {271, 200};
Line(219) = {200, 201};
Line(220) = {201, 202};
Line(221) = {202, 203};
Line(222) = {203, 204};
Line(223) = {204, 205};
Line(224) = {205, 206};
Line(225) = {206, 207};
Line(226) = {207, 208};
Line(227) = {208, 209};
Line(228) = {19, 210};
Line(229) = {210, 211};
Line(230) = {212, 213};
Line(231) = {213, 34};
Line(232) = {214, 215};
Line(233) = {215, 39};
Line(234) = {216, 217};
Line(235) = {217, 218};
Line(236) = {85, 275};
Line(237) = {275, 219};
Line(238) = {219, 220};
Line(239) = {107, 221};
Line(240) = {221, 222};
Line(241) = {116, 223};
Line(242) = {223, 224};
Line(243) = {121, 225};
Line(244) = {225, 226};
Line(245) = {135, 227};
Line(246) = {227, 228};
Line(247) = {148, 229};
Line(248) = {229, 230};
Line(249) = {177, 231};
Line(250) = {231, 232};
Line(251) = {209, 233};
Line(252) = {233, 234};
Line(253) = {235, 266};
Line(254) = {266, 275};
Line(255) = {275, 236};
Line(256) = {236, 178};
Line(257) = {48, 259};
Line(258) = {259, 237};
Line(259) = {237, 276};
Line(260) = {276, 238};
Line(261) = {188, 239};
Line(262) = {239, 276};
Line(263) = {276, 240};
Line(264) = {241, 242};
Line(265) = {242, 258};
Line(266) = {258, 49};
Line(267) = {33, 243};
Line(268) = {243, 244};
Line(269) = {245, 246};
Line(270) = {246, 1};
Line(271) = {247, 248};
Line(272) = {248, 20};
Line(273) = {249, 250};
Line(274) = {250, 251};
Line(275) = {252, 253};
Line(276) = {253, 189};
// Boundary lines
Line(277) = {277, 232};
Line(278) = {232, 230};
Line(279) = {230, 228};
Line(280) = {228, 234};
Line(281) = {234, 224};
Line(282) = {224, 226};
Line(283) = {226, 222};
Line(284) = {222, 235};
Line(285) = {235, 220};
Line(286) = {220, 278};
Line(287) = {278, 238};
Line(288) = {238, 240};
Line(289) = {240, 241};
Line(290) = {241, 279};
Line(291) = {279, 247};
Line(292) = {247, 252};
Line(293) = {252, 245};
Line(294) = {245, 249};
Line(295) = {249, 244};
Line(296) = {244, 280};
Line(297) = {280, 212};
Line(298) = {212, 214};
Line(299) = {214, 216};
Line(300) = {216, 211};
Line(301) = {211, 277};

Line Loop(1) = {277, 278, 279, 280, 
281, 282, 283, 284, 285, 286, 287, 288, 289, 290, 291, 292, 293, 294, 295, 296, 297, 298, 299, 300, 301};
Plane Surface(1) = {1};

// Including fractures in triangulation
Line{1, 2, 3, 4, 5, 6, 7, 8, 9, 10, 11, 12, 13, 14, 15, 16, 17, 18, 19, 20, 21, 22, 23, 24, 25, 26, 27, 28, 29, 30, 31, 32, 33, 34, 35, 36, 37, 38, 39, 40, 
41, 42, 43, 44, 45, 46, 47, 48, 49, 50, 51, 52, 53, 54, 55, 56, 57, 58, 59, 60, 61, 62, 63, 64, 65, 66, 67, 68, 69, 70, 71, 72, 73, 74, 75, 76, 77, 78, 79, 80, 
81, 82, 83, 84, 85, 86, 87, 88, 89, 90, 91, 92, 93, 94, 95, 96, 97, 98, 99, 100, 101, 102, 103, 104, 105, 106, 107, 108, 109, 110, 111, 112, 113, 114, 115, 116, 117, 118, 119, 120, 
121, 122, 123, 124, 125, 126, 127, 128, 129, 130, 131, 132, 133, 134, 135, 136, 137, 138, 139, 140, 141, 142, 143, 144, 145, 146, 147, 148, 149, 150, 151, 152, 153, 154, 155, 156, 157, 158, 159, 160, 
161, 162, 163, 164, 165, 166, 167, 168, 169, 170, 171, 172, 173, 174, 175, 176, 177, 178, 179, 180, 181, 182, 183, 184, 185, 186, 187, 188, 189, 190, 191, 192, 193, 194, 195, 196, 197, 198, 199, 200, 
201, 202, 203, 204, 205, 206, 207, 208, 209, 210, 211, 212, 213, 214, 215, 216, 217, 218, 219, 220, 221, 222, 223, 224, 225, 226, 227, 228, 229, 230, 231, 232, 233, 234, 235, 236, 237, 238, 239, 240, 
241, 242, 243, 244, 245, 246, 247, 248, 249, 250, 251, 252, 253, 254, 255, 256, 257, 258, 259, 260, 261, 262, 263, 264, 265, 266, 267, 268, 269, 270, 271, 272, 273, 274, 275, 276} In Surface {1};

// Physical entities

Physical Line(OPEN_FRACTURES) = {1, 2, 3, 4, 5, 6, 7, 8, 9, 10, 11, 12, 13, 14, 15, 16, 17, 18, 19, 20, 21, 22, 23, 24, 25, 26, 27, 28, 29, 30, 31, 32, 33, 34, 35, 36, 37, 38, 39, 40, 
41, 42, 43, 44, 45, 46, 47, 48, 49, 50, 51, 52, 53, 54, 55, 56, 57, 58, 59, 60, 61, 62, 63, 64, 65, 66, 67, 68, 69, 70, 71, 72, 73, 74, 75, 76, 77, 78, 79, 80, 
81, 82, 83, 84, 85, 86, 87, 88, 89, 90, 91, 92, 93, 94, 95, 96, 97, 98, 99, 100, 101, 102, 103, 104, 105, 106, 107, 108, 109, 110, 111, 112, 113, 114, 115, 116, 117, 118, 119, 120, 
121, 122, 123, 124, 125, 126, 127, 128, 129, 130, 131, 132, 133, 134, 135, 136, 137, 138, 139, 140, 141, 142, 143, 144, 145, 146, 147, 148, 149, 150, 151, 152, 153, 154, 155, 156, 157, 158, 159, 160, 
161, 162, 163, 164, 165, 166, 167, 168, 169, 170, 171, 172, 173, 174, 175, 176, 177, 178, 179, 180, 181, 182, 183, 184, 185, 186, 187, 188, 189, 190, 191, 192, 193, 194, 195, 196, 197, 198, 199, 200, 
201, 202, 203, 204, 205, 206, 207, 208, 209, 210, 211, 212, 213, 214, 215, 216, 217, 218, 219, 220, 221, 222, 223, 224, 225, 226, 227, 228, 229, 230, 231, 232, 233, 234, 235, 236, 237, 238, 239, 240, 
241, 242, 243, 244, 245, 246, 247, 248, 249, 250, 251, 252, 253, 254, 255, 256, 257, 258, 259, 260, 261, 262, 263, 264, 265, 266, 267, 268, 269, 270, 271, 272, 273, 274, 275, 276};

Physical Surface(MATRIX) = {1};
